<?xml version="1.0" encoding="UTF-8" standalone="no"?>
<svg
    xmlns:inkscape="http://www.inkscape.org/namespaces/inkscape"
    xmlns:rdf="http://www.w3.org/1999/02/22-rdf-syntax-ns#"
    xmlns="http://www.w3.org/2000/svg"
    xmlns:xlink="http://www.w3.org/1999/xlink"
    xmlns:ns1="http://sozi.baierouge.fr"
    xmlns:cc="http://creativecommons.org/ns#"
    xmlns:dc="http://purl.org/dc/elements/1.1/"
    xmlns:sodipodi="http://sodipodi.sourceforge.net/DTD/sodipodi-0.dtd"
    id="svg2"
    inkscape:version="0.48.3.1 r9886"
    viewBox="0 0 22.51171 47.448736"
    version="1.1"
    sodipodi:docname="_svgclean2.svg"
  >
  <sodipodi:namedview
      id="namedview474"
      bordercolor="#666666"
      inkscape:pageshadow="2"
      guidetolerance="10"
      pagecolor="#ffffff"
      gridtolerance="10"
      inkscape:zoom="4.9738043"
      inkscape:window-maximized="0"
      objecttolerance="10"
      inkscape:window-height="645"
      showgrid="false"
      borderopacity="1"
      inkscape:current-layer="svg2"
      inkscape:cx="11.255745"
      inkscape:cy="23.724583"
      inkscape:window-y="0"
      inkscape:window-x="0"
      inkscape:window-width="785"
      inkscape:pageopacity="0"
  />
  <g
      id="g4"
      transform="translate(-15.183 -11.831)"
    >
    <radialGradient
        id="a"
        gradientUnits="userSpaceOnUse"
        cy="-53.533"
        cx="1174.8"
        gradientTransform="matrix(.329 .729 .729 -.329 -323.16 -829.59)"
        r="18.043"
      >
      <stop
          id="stop7"
          stop-color="#B8EEC8"
          stop-opacity=".667"
          offset="0"
      />
      <stop
          id="stop9"
          stop-color="#516C6C"
          stop-opacity=".847"
          offset=".988"
      />
    </radialGradient
    >
    <path
        id="path11"
        d="m18.543 55.627c-2.026-2.16-3-4.707-2.92-7.64 0-0.587 0.067-1.214 0.2-1.88 0.934 0.666 2.307 1.213 4.12 1.64 1.84 0.453 3.88 0.706 6.12 0.76 2.4 0.08 4.6-0.08 6.6-0.48 1.92-0.4 3.307-0.96 4.16-1.68 0.134 0.8 0.2 1.534 0.2 2.2-0.08 2.96-1.188 5.453-3.32 7.48-2.16 2.025-4.72 3-7.68 2.92s-5.453-1.187-7.48-3.32z"
        style="fill:url(#a);fill-rule:evenodd"
        inkscape:connector-curvature="0"
    />
    <radialGradient
        id="b"
        gradientUnits="userSpaceOnUse"
        cy="-77.624"
        cx="1173.7"
        gradientTransform="matrix(.314 .736 .701 -.332 -290.69 -846.83)"
        r="13.838"
      >
      <stop
          id="stop14"
          stop-color="#C3D7C1"
          stop-opacity=".667"
          offset="0"
      />
      <stop
          id="stop16"
          stop-color="#A3CCB0"
          stop-opacity=".847"
          offset=".988"
      />
    </radialGradient
    >
    <path
        id="path18"
        d="m18.823 43.587c2.054-0.48 4.547-0.68 7.48-0.6 2.906 0.08 5.387 0.413 7.44 1 2.053 0.586 3.065 1.253 3.04 2-0.027 0.746-1.08 1.36-3.16 1.84s-4.573 0.68-7.48 0.6-5.4-0.413-7.48-1c-2.053-0.587-3.066-1.253-3.04-2 0.054-0.746 1.12-1.36 3.2-1.84z"
        style="fill:url(#b);fill-rule:evenodd"
        inkscape:connector-curvature="0"
    />
    <path
        id="path20"
        d="m15.624 45.507c0.042 0.713 1.055 1.353 3.04 1.92 2.08 0.587 4.573 0.92 7.48 1s5.4-0.12 7.48-0.6c2.044-0.472 3.097-1.07 3.16-1.8-0.054 0.808-0.907 1.475-2.562 2-1.92 0.612-4.572 0.88-7.96 0.8-3.386-0.08-6.066-0.48-8.04-1.2-1.706-0.62-2.572-1.328-2.598-2.12z"
        style="fill:#e6fded;fill-rule:evenodd"
        inkscape:connector-curvature="0"
    />
    <radialGradient
        id="c"
        gradientUnits="userSpaceOnUse"
        cy="-242.11"
        cx="1158.5"
        gradientTransform="matrix(.208 .772 .772 -.208 -27.241 -895.26)"
        r="2.304"
      >
      <stop
          id="stop23"
          stop-color="#fff"
          offset="0"
      />
      <stop
          id="stop25"
          stop-color="#E2F4EC"
          offset=".165"
      />
      <stop
          id="stop27"
          stop-color="#6F8D79"
          stop-opacity=".847"
          offset=".859"
      />
      <stop
          id="stop29"
          stop-color="#87A986"
          stop-opacity=".847"
          offset="1"
      />
    </radialGradient
    >
    <path
        id="path31"
        d="m28.743 50.507c-0.026 0.4-0.187 0.733-0.48 1s-0.653 0.386-1.08 0.36c-0.4 0-0.746-0.134-1.04-0.4-0.292-0.293-0.426-0.64-0.4-1.04 0-0.374 0.16-0.693 0.48-0.96 0.294-0.293 0.642-0.427 1.04-0.4 0.428 0 0.773 0.146 1.04 0.44 0.294 0.293 0.44 0.627 0.44 1z"
        style="fill:url(#c);fill-rule:evenodd"
        inkscape:connector-curvature="0"
    />
    <radialGradient
        id="d"
        gradientUnits="userSpaceOnUse"
        cy="-231.85"
        cx="1153.8"
        gradientTransform="matrix(.208 .772 .772 -.208 -43.048 -890.84)"
        r="1.346"
      >
      <stop
          id="stop34"
          stop-color="#fff"
          offset="0"
      />
      <stop
          id="stop36"
          stop-color="#E2F4EC"
          offset=".165"
      />
      <stop
          id="stop38"
          stop-color="#6F8D79"
          stop-opacity=".847"
          offset=".859"
      />
      <stop
          id="stop40"
          stop-color="#87A986"
          stop-opacity=".847"
          offset="1"
      />
    </radialGradient
    >
    <path
        id="path42"
        d="m18.823 48.986c-0.026 0.24-0.12 0.44-0.28 0.6-0.187 0.16-0.4 0.24-0.64 0.24-0.24-0.026-0.44-0.12-0.6-0.28-0.187-0.16-0.267-0.36-0.24-0.6 0-0.213 0.093-0.4 0.28-0.56 0.16-0.16 0.36-0.24 0.6-0.24 0.24 0.027 0.453 0.12 0.64 0.28 0.16 0.16 0.24 0.347 0.24 0.56z"
        style="fill:url(#d);fill-rule:evenodd"
        inkscape:connector-curvature="0"
    />
    <radialGradient
        id="e"
        gradientUnits="userSpaceOnUse"
        cy="-236.81"
        cx="1154.7"
        gradientTransform="matrix(.208 .772 .772 -.208 -35.388 -892.9)"
        r="1.346"
      >
      <stop
          id="stop45"
          stop-color="#fff"
          offset="0"
      />
      <stop
          id="stop47"
          stop-color="#E2F4EC"
          offset=".165"
      />
      <stop
          id="stop49"
          stop-color="#6F8D79"
          stop-opacity=".847"
          offset=".859"
      />
      <stop
          id="stop51"
          stop-color="#87A986"
          stop-opacity=".847"
          offset="1"
      />
    </radialGradient
    >
    <path
        id="path53"
        d="m22.783 48.587c0 0.213-0.08 0.4-0.24 0.56-0.187 0.16-0.4 0.24-0.64 0.24s-0.453-0.08-0.64-0.24c-0.16-0.16-0.24-0.36-0.24-0.6s0.094-0.44 0.28-0.6 0.4-0.227 0.64-0.2c0.24 0 0.44 0.08 0.6 0.24s0.24 0.36 0.24 0.6z"
        style="fill:url(#e);fill-rule:evenodd"
        inkscape:connector-curvature="0"
    />
    <radialGradient
        id="f"
        gradientUnits="userSpaceOnUse"
        cy="-245.2"
        cx="1154.3"
        gradientTransform="matrix(.208 .772 .772 -.208 -22.429 -896.39)"
        r="1.346"
      >
      <stop
          id="stop56"
          stop-color="#fff"
          offset="0"
      />
      <stop
          id="stop58"
          stop-color="#E2F4EC"
          offset=".165"
      />
      <stop
          id="stop60"
          stop-color="#6F8D79"
          stop-opacity=".847"
          offset=".859"
      />
      <stop
          id="stop62"
          stop-color="#87A986"
          stop-opacity=".847"
          offset="1"
      />
    </radialGradient
    >
    <path
        id="path64"
        d="m29.184 46.547c0 0.24-0.08 0.44-0.24 0.6-0.187 0.16-0.4 0.227-0.64 0.2-0.24 0-0.44-0.08-0.6-0.24-0.188-0.187-0.28-0.386-0.28-0.6 0.054-0.533 0.36-0.8 0.92-0.8 0.24 0 0.44 0.08 0.6 0.24 0.186 0.187 0.266 0.387 0.24 0.6z"
        style="fill:url(#f);fill-rule:evenodd"
        inkscape:connector-curvature="0"
    />
    <radialGradient
        id="g"
        gradientUnits="userSpaceOnUse"
        cy="-233.33"
        cx="1160.4"
        gradientTransform="matrix(.209 .772 .772 -.209 -40.946 -892.11)"
        r="2.292"
      >
      <stop
          id="stop67"
          stop-color="#fff"
          offset="0"
      />
      <stop
          id="stop69"
          stop-color="#E2F4EC"
          offset=".165"
      />
      <stop
          id="stop71"
          stop-color="#6F8D79"
          stop-opacity=".847"
          offset=".859"
      />
      <stop
          id="stop73"
          stop-color="#87A986"
          stop-opacity=".847"
          offset="1"
      />
    </radialGradient
    >
    <path
        id="path75"
        d="m23.543 53.146c-0.026 0.374-0.187 0.707-0.48 1-0.293 0.267-0.64 0.387-1.04 0.36-0.427-0.026-0.773-0.173-1.04-0.44-0.293-0.293-0.44-0.627-0.44-1 0.027-0.373 0.187-0.693 0.48-0.96 0.293-0.293 0.64-0.426 1.04-0.4 0.427 0.027 0.773 0.175 1.04 0.44 0.293 0.293 0.44 0.627 0.44 1z"
        style="fill:url(#g);fill-rule:evenodd"
        inkscape:connector-curvature="0"
    />
    <radialGradient
        id="h"
        gradientUnits="userSpaceOnUse"
        cy="-245.07"
        cx="1161.9"
        gradientTransform="matrix(.211 .772 .772 -.211 -23.036 -897.87)"
        r="1.374"
      >
      <stop
          id="stop78"
          stop-color="#fff"
          offset="0"
      />
      <stop
          id="stop80"
          stop-color="#E2F4EC"
          offset=".165"
      />
      <stop
          id="stop82"
          stop-color="#6F8D79"
          stop-opacity=".847"
          offset=".859"
      />
      <stop
          id="stop84"
          stop-color="#87A986"
          stop-opacity=".847"
          offset="1"
      />
    </radialGradient
    >
    <path
        id="path86"
        d="m34.144 50.707c0 0.24-0.093 0.44-0.28 0.6-0.16 0.16-0.373 0.24-0.64 0.24-0.24 0-0.44-0.08-0.6-0.24-0.188-0.187-0.28-0.4-0.28-0.64s0.093-0.44 0.28-0.6c0.186-0.16 0.4-0.228 0.64-0.2 0.267 0 0.48 0.08 0.64 0.24 0.186 0.186 0.266 0.386 0.24 0.6z"
        style="fill:url(#h);fill-rule:evenodd"
        inkscape:connector-curvature="0"
    />
    <radialGradient
        id="i"
        gradientUnits="userSpaceOnUse"
        cy="-593.39"
        cx="1002.8"
        gradientTransform="matrix(-.053 .798 1.348 .106 871.93 -694.54)"
        r="1.892"
      >
      <stop
          id="stop89"
          stop-color="#fff"
          offset="0"
      />
      <stop
          id="stop91"
          stop-color="#E2F4EC"
          offset=".165"
      />
      <stop
          id="stop93"
          stop-color="#6F8D79"
          stop-opacity=".847"
          offset=".859"
      />
      <stop
          id="stop95"
          stop-color="#87A986"
          stop-opacity=".847"
          offset="1"
      />
    </radialGradient
    >
    <path
        id="path97"
        d="m18.943 44.666c-0.666-0.026-1.12-0.16-1.36-0.4 0.08-0.346 0.253-0.626 0.52-0.84 0.24-0.212 0.533-0.318 0.88-0.318 0.347 0.026 0.653 0.16 0.92 0.4 0.266 0.24 0.413 0.545 0.44 0.92-0.266 0.16-0.733 0.238-1.4 0.238z"
        style="fill:url(#i);fill-rule:evenodd"
        inkscape:connector-curvature="0"
    />
    <radialGradient
        id="j"
        gradientUnits="userSpaceOnUse"
        cy="-606.82"
        cx="1003.6"
        gradientTransform="matrix(-.054 .798 1.353 .108 903.6 -690.01)"
        r="1.478"
      >
      <stop
          id="stop100"
          stop-color="#fff"
          offset="0"
      />
      <stop
          id="stop102"
          stop-color="#E2F4EC"
          offset=".165"
      />
      <stop
          id="stop104"
          stop-color="#6F8D79"
          stop-opacity=".847"
          offset=".859"
      />
      <stop
          id="stop106"
          stop-color="#87A986"
          stop-opacity=".847"
          offset="1"
      />
    </radialGradient
    >
    <path
        id="path108"
        d="m28.304 46.507c-0.48-0.026-0.84-0.12-1.08-0.28 0.054-0.267 0.187-0.493 0.4-0.68s0.453-0.267 0.72-0.24c0.266 0 0.507 0.106 0.72 0.32 0.187 0.187 0.307 0.426 0.36 0.72-0.268 0.133-0.64 0.186-1.12 0.16z"
        style="fill:url(#j);fill-rule:evenodd"
        inkscape:connector-curvature="0"
    />
    <radialGradient
        id="k"
        gradientUnits="userSpaceOnUse"
        cy="-602.63"
        cx="1004.3"
        gradientTransform="matrix(-.054 .798 1.347 .109 890.97 -689.98)"
        r="2.205"
      >
      <stop
          id="stop111"
          stop-color="#fff"
          offset="0"
      />
      <stop
          id="stop113"
          stop-color="#E2F4EC"
          offset=".165"
      />
      <stop
          id="stop115"
          stop-color="#6F8D79"
          stop-opacity=".847"
          offset=".859"
      />
      <stop
          id="stop117"
          stop-color="#87A986"
          stop-opacity=".847"
          offset="1"
      />
    </radialGradient
    >
    <path
        id="path119"
        d="m24.543 47.747c-0.667 0-1.2-0.147-1.6-0.44 0.107-0.4 0.307-0.72 0.6-0.96 0.32-0.267 0.68-0.4 1.08-0.4 0.4 0.027 0.747 0.188 1.04 0.48 0.32 0.294 0.495 0.653 0.52 1.08-0.32 0.186-0.866 0.266-1.64 0.24z"
        style="fill:url(#k);fill-rule:evenodd"
        inkscape:connector-curvature="0"
    />
    <radialGradient
        id="l"
        gradientUnits="userSpaceOnUse"
        cy="-620.19"
        cx="1002.9"
        gradientTransform="matrix(-.06 .798 1.716 .13 1157.9 -676.06)"
        r="1.555"
      >
      <stop
          id="stop122"
          stop-color="#fff"
          offset="0"
      />
      <stop
          id="stop124"
          stop-color="#E2F4EC"
          offset=".165"
      />
      <stop
          id="stop126"
          stop-color="#6F8D79"
          stop-opacity=".847"
          offset=".859"
      />
      <stop
          id="stop128"
          stop-color="#87A986"
          stop-opacity=".847"
          offset="1"
      />
    </radialGradient
    >
    <path
        id="path130"
        d="m32.664 44.427c-0.694-0.026-1.174-0.134-1.44-0.32 0.08-0.293 0.253-0.533 0.52-0.72 0.293-0.187 0.613-0.267 0.96-0.24 0.374 0.027 0.693 0.147 0.96 0.36 0.267 0.214 0.414 0.467 0.44 0.76-0.534 0.106-1.014 0.16-1.44 0.16z"
        style="fill:url(#l);fill-rule:evenodd"
        inkscape:connector-curvature="0"
    />
    <radialGradient
        id="m"
        gradientUnits="userSpaceOnUse"
        cy="-567.04"
        cx="1003.7"
        gradientTransform="matrix(-.025 .8 1.565 .049 939.63 -752.28)"
        r="24.65"
      >
      <stop
          id="stop133"
          stop-color="#fff"
          stop-opacity=".259"
          offset="0"
      />
      <stop
          id="stop135"
          stop-color="#EBEBEB"
          stop-opacity=".369"
          offset=".165"
      />
      <stop
          id="stop137"
          stop-color="#E0E0E0"
          stop-opacity=".459"
          offset=".859"
      />
      <stop
          id="stop139"
          stop-color="#EDEDED"
          stop-opacity=".228"
          offset="1"
      />
    </radialGradient
    >
    <path
        id="path141"
        d="m28.144 21.308c0.934 0.053 1.56 0.293 1.88 0.72 0.293 0.426 0.013 0.933-0.84 1.52-0.427 0.32-0.88 0.586-1.36 0.8l-1 0.76c-0.48 0.667-0.333 1.374 0.44 2.12 0.106 0.08 0.52 0.293 1.24 0.64 0.692 0.427 1.013 0.88 0.96 1.36-0.054 0.4-0.24 0.894-0.56 1.48-0.295 0.507-0.44 0.906-0.44 1.2 0 0.186-0.254 0.573-0.76 1.16-0.48 0.56-0.64 1.146-0.48 1.76 0.106 0.32 0.373 0.946 0.8 1.88 0.24 0.533 0.267 0.894 0.08 1.08-0.16 0.187 0.213 0.387 1.12 0.6 1.173 0.294 1.894 0.52 2.16 0.68 1.546 0.96 2.76 2.268 3.64 3.92 0.934 1.76 1.467 2.694 1.6 2.8 0.747 0.587 0.373 1.188-1.12 1.8-1.76 0.694-4.48 1-8.16 0.92-3.573-0.105-6.426-0.586-8.56-1.44-1.732-0.692-2.4-1.226-2-1.6 0.053-0.053 0.533-0.84 1.44-2.358 0.88-1.414 1.6-2.294 2.16-2.64 0.506-0.294 1.2-0.294 2.08 0 0.827 0.266 1.4 0.266 1.72 0 0.373-0.348 0.373-0.855 0-1.52-0.506-0.828-0.76-1.255-0.76-1.28 0-1.44 0.307-2.694 0.92-3.76 0.533-0.748 0.866-1.255 1-1.522 0.24-0.373 0.293-0.88 0.16-1.52-0.107-0.453-0.48-1.333-1.12-2.64-0.56-1.146-0.84-1.987-0.84-2.52 0-0.614 0.507-1.24 1.52-1.88 1.173-0.64 1.88-1.04 2.12-1.2 0.48-0.293 0.36-0.733-0.36-1.32h1.32z"
        style="fill:url(#m);fill-rule:evenodd"
        inkscape:connector-curvature="0"
    />
    <radialGradient
        id="n"
        gradientUnits="userSpaceOnUse"
        cy="-385.92"
        cx="1111.5"
        gradientTransform="matrix(.109 .792 .726 -.1 184.73 -875.18)"
        r="17.867"
      >
      <stop
          id="stop144"
          stop-color="#fff"
          stop-opacity=".478"
          offset="0"
      />
      <stop
          id="stop146"
          stop-color="#fff"
          stop-opacity=".082"
          offset=".71"
      />
      <stop
          id="stop148"
          stop-color="#fff"
          stop-opacity=".2"
          offset=".867"
      />
      <stop
          id="stop150"
          stop-color="#fff"
          stop-opacity=".028"
          offset="1"
      />
    </radialGradient
    >
    <path
        id="path152"
        d="m16.023 43.747c1.147-2.934 3.146-5.04 6-6.32s5.707-1.36 8.56-0.24c2.88 1.12 4.934 3.12 6.16 6 1.227 2.88 1.267 5.787 0.12 8.72-1.173 2.934-3.173 5.054-6 6.36-2.854 1.28-5.72 1.347-8.6 0.2-2.88-1.12-4.933-3.12-6.16-6-1.2-2.88-1.226-5.786-0.08-8.72z"
        style="fill:url(#n);fill-rule:evenodd"
        inkscape:connector-curvature="0"
    />
    <radialGradient
        id="o"
        gradientUnits="userSpaceOnUse"
        cy="1146.1"
        cx="-293.01"
        gradientTransform="matrix(.607 -.522 -.522 -.607 794.61 595.68)"
        r="24.783"
      >
      <stop
          id="stop155"
          stop-color="#fff"
          stop-opacity=".949"
          offset="0"
      />
      <stop
          id="stop157"
          stop-color="#8A9B9E"
          offset="1"
      />
    </radialGradient
    >
    <path
        id="path159"
        d="m16.264 43.707c-1.12 2.88-1.08 5.72 0.12 8.52 1.2 2.826 3.212 4.786 6.04 5.88s5.626 1.027 8.4-0.2c2.8-1.253 4.76-3.32 5.88-6.2 1.146-2.88 1.12-5.72-0.08-8.52-1.2-2.826-3.214-4.8-6.04-5.92-2.827-1.093-5.64-1.014-8.44 0.24s-4.76 3.32-5.88 6.2zm-0.16 8.76c-1.2-2.88-1.227-5.786-0.08-8.72 1.146-2.934 3.145-5.04 6-6.32 2.853-1.28 5.706-1.36 8.56-0.24 2.88 1.12 4.933 3.12 6.16 6 1.226 2.88 1.266 5.787 0.12 8.72-1.174 2.934-3.174 5.054-6 6.36-2.855 1.28-5.72 1.347-8.6 0.2-2.88-1.12-4.933-3.12-6.16-6z"
        style="fill:url(#o);fill-rule:evenodd"
        inkscape:connector-curvature="0"
    />
    <radialGradient
        id="p"
        gradientUnits="userSpaceOnUse"
        cy="-313.1"
        cx="1116.9"
        gradientTransform="matrix(.161 .784 .888 -.147 123.96 -881.4)"
        r="12.787"
      >
      <stop
          id="stop162"
          stop-color="#fff"
          stop-opacity=".588"
          offset="0"
      />
      <stop
          id="stop164"
          stop-color="#fff"
          stop-opacity="0"
          offset="1"
      />
    </radialGradient
    >
    <path
        id="path166"
        d="m19.304 51.826c-1.733-0.586-2.68-1.986-2.84-4.2-0.16-1.92 0.24-3.72 1.2-5.4 0.453-0.8 1.106-1.505 1.96-2.118 0.666-0.507 1.146-0.773 1.44-0.8 0.106 0 0.2 0.146 0.28 0.44 0.266 0.4 0.96 0.786 2.08 1.16 1.173 0.4 2.507 0.532 4 0.4 0.72-0.056 1.334-0.16 1.84-0.32 1.76 0.585 2.855 1.893 3.28 3.92 0.214 1.012 0.254 1.973 0.12 2.88l-0.08 1.32c-0.213 0.984-0.64 1.812-1.28 2.478-2.108 2.135-6.107 2.214-12 0.24z"
        style="fill:url(#p);fill-rule:evenodd"
        inkscape:connector-curvature="0"
    />
    <radialGradient
        id="q"
        gradientUnits="userSpaceOnUse"
        cy="-323.62"
        cx="1130.9"
        gradientTransform="matrix(.161 .784 .867 -.178 132.94 -904.23)"
        r="8.396"
      >
      <stop
          id="stop169"
          stop-color="#fff"
          stop-opacity=".62"
          offset="0"
      />
      <stop
          id="stop171"
          stop-color="#fff"
          stop-opacity=".028"
          offset="1"
      />
    </radialGradient
    >
    <path
        id="path173"
        d="m36.863 47.587c-0.027 0.8-0.12 1.466-0.28 2l-1.8 0.36c0.16-0.188 0.268-0.52 0.32-1 0.16-0.934 0.066-2.147-0.28-3.64s-1.026-2.814-2.04-3.96l-1.44-1.28c0.214-0.187 0.214-0.574 0-1.16l-0.36-0.8 2 1.28c1.468 1.12 2.494 2.373 3.08 3.76 0.587 1.36 0.854 2.84 0.8 4.44z"
        style="fill:url(#q);fill-rule:evenodd"
        inkscape:connector-curvature="0"
    />
    <linearGradient
        id="r"
        y2="774.07"
        gradientUnits="userSpaceOnUse"
        x2="883.44"
        gradientTransform="matrix(.745 .292 -.292 .745 -401.25 -794.4)"
        y1="774.07"
        x1="872.97"
      >
      <stop
          id="stop176"
          stop-color="#fff"
          stop-opacity=".949"
          offset="0"
      />
      <stop
          id="stop178"
          stop-color="#ABD9DB"
          offset="1"
      />
    </linearGradient
    >
    <path
        id="path180"
        d="m29.863 39.787c-0.405 0.153-0.858 0.267-1.36 0.34 0.454-0.08 0.867-0.193 1.24-0.34 0.747-0.267 1.134-0.6 1.16-1 0.026-0.427-0.373-0.8-1.2-1.12-0.826-0.32-1.826-0.493-3-0.52-1.173-0.027-2.186 0.105-3.04 0.4-0.853 0.292-1.293 0.652-1.32 1.08-0.026 0.398 0.32 0.746 1.04 1.04 0.36 0.16 0.768 0.285 1.22 0.38-0.482-0.09-0.915-0.217-1.3-0.38-0.772-0.294-1.146-0.654-1.12-1.08 0.027-0.428 0.48-0.8 1.36-1.12 0.88-0.294 1.935-0.428 3.162-0.4 1.253 0.025 2.292 0.2 3.12 0.52 0.853 0.32 1.266 0.693 1.24 1.12-0.03 0.427-0.428 0.786-1.202 1.08z"
        style="fill:url(#r);fill-rule:evenodd"
        inkscape:connector-curvature="0"
    />
    <linearGradient
        id="s"
        y2="898.4"
        gradientUnits="userSpaceOnUse"
        x2="755.61"
        gradientTransform="matrix(.78 .176 -.176 .78 -401.25 -794.4)"
        y1="898.4"
        x1="746.28"
      >
      <stop
          id="stop183"
          stop-opacity=".247"
          offset="0"
      />
      <stop
          id="stop185"
          stop-opacity=".028"
          offset="1"
      />
    </linearGradient
    >
    <path
        id="path187"
        d="m30.903 38.787c-0.026 0.427-0.467 0.773-1.32 1.04-0.826 0.293-1.84 0.44-3.04 0.44-1.173-0.027-2.173-0.2-3-0.52-0.826-0.32-1.226-0.694-1.2-1.12 0.027-0.428 0.467-0.788 1.32-1.08 0.854-0.295 1.867-0.428 3.04-0.4 1.174 0.026 2.174 0.2 3 0.52 0.827 0.32 1.227 0.693 1.2 1.12z"
        style="fill:url(#s);fill-rule:evenodd"
        inkscape:connector-curvature="0"
    />
    <linearGradient
        id="t"
        y2="256.58"
        gradientUnits="userSpaceOnUse"
        x2="-1117.5"
        gradientTransform="matrix(-.205 -.773 .773 -.205 -401.25 -794.4)"
        y1="256.58"
        x1="-1124.4"
      >
      <stop
          id="stop190"
          stop-color="#fff"
          stop-opacity=".22"
          offset="0"
      />
      <stop
          id="stop192"
          stop-color="#fff"
          stop-opacity=".028"
          offset="1"
      />
    </linearGradient
    >
    <path
        id="path194"
        d="m29.983 20.507c0.826-0.293 1.24-0.667 1.24-1.12 0.026-0.453-0.373-0.853-1.2-1.2-0.8-0.32-1.787-0.493-2.96-0.52-1.146-0.027-2.146 0.107-3 0.4-0.828 0.294-1.254 0.667-1.28 1.12-0.027 0.453 0.373 0.854 1.2 1.2 0.8 0.32 1.786 0.493 2.96 0.52s2.187-0.107 3.04-0.4zm2.32-0.6c-0.025 0.667-0.56 1.214-1.6 1.64-1.04 0.454-2.307 0.668-3.8 0.64-1.467-0.025-2.707-0.292-3.72-0.8-1.04-0.478-1.547-1.052-1.52-1.72 0.026-0.666 0.572-1.226 1.64-1.68 1.04-0.426 2.293-0.625 3.76-0.6s2.72 0.28 3.76 0.76c1.013 0.507 1.507 1.093 1.48 1.76z"
        style="fill:url(#t);fill-rule:evenodd"
        inkscape:connector-curvature="0"
    />
    <linearGradient
        id="u"
        y2="1016.5"
        gradientUnits="userSpaceOnUse"
        x2="568.14"
        gradientTransform="matrix(.8 .021 -.021 .8 -401.25 -794.4)"
        y1="1016.5"
        x1="557.11"
      >
      <stop
          id="stop197"
          stop-color="#fff"
          stop-opacity=".22"
          offset="0"
      />
      <stop
          id="stop199"
          stop-color="#fff"
          stop-opacity=".028"
          offset="1"
      />
    </linearGradient
    >
    <path
        id="path201"
        d="m22.704 20.627c0.16 0.427 0.64 0.787 1.44 1.08 0.8 0.294 1.72 0.454 2.76 0.48 1.066 0.027 2-0.093 2.8-0.36s1.307-0.613 1.52-1.04l-0.24 17.64 0.08 0.32c-0.026 0.48-0.466 0.88-1.32 1.2-0.852 0.346-1.88 0.506-3.078 0.48-1.2-0.027-2.213-0.214-3.04-0.562-0.827-0.346-1.24-0.773-1.24-1.28l0.12-0.32 0.198-17.638z"
        style="fill:url(#u);fill-rule:evenodd"
        inkscape:connector-curvature="0"
    />
    <linearGradient
        id="v"
        y2="1016.6"
        gradientUnits="userSpaceOnUse"
        x2="566.98"
        gradientTransform="matrix(.8 .021 -.021 .8 -401.25 -794.4)"
        y1="1016.6"
        x1="557.45"
      >
      <stop
          id="stop204"
          stop-color="#fff"
          stop-opacity=".22"
          offset="0"
      />
      <stop
          id="stop206"
          stop-color="#fff"
          stop-opacity=".028"
          offset="1"
      />
    </linearGradient
    >
    <path
        id="path208"
        d="m26.903 22.107c1.627 0 2.854-0.267 3.68-0.8l-0.16 16.4 0.04 0.318c-0.026 0.48-0.4 0.88-1.12 1.2-0.746 0.32-1.64 0.467-2.68 0.44-1.013-0.027-1.88-0.214-2.6-0.56-0.72-0.347-1.066-0.76-1.04-1.24l0.08-0.28 0.16-16.4c0.827 0.59 2.04 0.895 3.64 0.922z"
        style="fill:url(#v);fill-rule:evenodd"
        inkscape:connector-curvature="0"
    />
    <linearGradient
        id="w"
        y2="1028.2"
        gradientUnits="userSpaceOnUse"
        x2="568.63"
        gradientTransform="matrix(.8 .022 -.022 .8 -401.25 -794.4)"
        y1="1028.2"
        x1="557.8"
      >
      <stop
          id="stop211"
          stop-color="#fff"
          stop-opacity=".949"
          offset="0"
      />
      <stop
          id="stop213"
          stop-color="#ABD9DB"
          offset="1"
      />
    </linearGradient
    >
    <path
        id="path215"
        d="m27.983 40.308-1.32 0.04c-0.72 0-1.453-0.095-2.2-0.28l-0.12-0.12c0.694 0.187 1.547 0.293 2.56 0.32l1.08 0.04z"
        style="fill:url(#w);fill-rule:evenodd"
        inkscape:connector-curvature="0"
    />
    <linearGradient
        id="x"
        y2="1016.3"
        gradientUnits="userSpaceOnUse"
        x2="568.87"
        gradientTransform="matrix(.8 .021 -.021 .8 -401.25 -794.4)"
        y1="1016.3"
        x1="556.34"
      >
      <stop
          id="stop218"
          stop-color="#fff"
          stop-opacity=".949"
          offset="0"
      />
      <stop
          id="stop220"
          stop-color="#809C89"
          offset="1"
      />
    </linearGradient
    >
    <path
        id="path222"
        d="m22.704 20.547c0.027 0.106 0.12 0.24 0.28 0.4-0.053 1.787-0.093 7.133-0.12 16.04v0.08l-0.04 0.12c0.026 0.746 0.227 1.373 0.6 1.88l-0.16 0.08c-0.24-0.134-0.4-0.2-0.48-0.2-0.107 0.026-0.107 0.106 0 0.24l0.28 0.2v0.12c-0.454-0.32-0.68-0.654-0.68-1l0.08-0.32 0.24-17.64z"
        style="fill:url(#x);fill-rule:evenodd"
        inkscape:connector-curvature="0"
    />
    <linearGradient
        id="y"
        y2="1034.5"
        gradientUnits="userSpaceOnUse"
        x2="532.31"
        gradientTransform="matrix(.8 -.006 .006 .8 -401.25 -794.4)"
        y1="1034.5"
        x1="521.86"
      >
      <stop
          id="stop225"
          stop-color="#fff"
          stop-opacity=".949"
          offset="0"
      />
      <stop
          id="stop227"
          stop-color="#9AAFB8"
          offset="1"
      />
    </linearGradient
    >
    <path
        id="path229"
        d="m30.863 21.787c0.027-0.213 0-0.333-0.08-0.36-0.053 0-0.227 0.067-0.52 0.2v-0.12c0.506-0.24 0.826-0.507 0.96-0.8l-0.24 17.64c0.053 0.105 0.067 0.213 0.04 0.32 0 0.292-0.16 0.56-0.48 0.8-0.053-0.107-0.187-0.215-0.4-0.32 0.16-0.214 0.28-0.44 0.36-0.68l0.2-0.52 0.16-16.16z"
        style="fill:url(#y);fill-rule:evenodd"
        inkscape:connector-curvature="0"
    />
    <linearGradient
        id="z"
        y2="-559.04"
        gradientUnits="userSpaceOnUse"
        x2="1021.3"
        gradientTransform="matrix(-.021 .8 -.8 -.021 -401.25 -794.4)"
        y1="-559.04"
        x1="1010.8"
      >
      <stop
          id="stop232"
          stop-color="#fff"
          stop-opacity=".42"
          offset="0"
      />
      <stop
          id="stop234"
          stop-color="#fff"
          stop-opacity=".028"
          offset="1"
      />
    </linearGradient
    >
    <path
        id="path236"
        d="m23.823 21.507c0.507 0.213 0.973 0.346 1.4 0.4l-0.24 17.6c-0.106 0.054-0.16 0.12-0.16 0.2l0.16 0.08v0.04l-0.56-0.24-0.16 0.04c-0.054 0.026-0.027 0.134 0.08 0.32-0.667-0.214-1.093-0.4-1.28-0.56 0-0.08 0.066-0.16 0.2-0.24l0.68 0.36c-0.133-0.08-0.307-0.228-0.52-0.44l0.2-0.08 0.2-17.48z"
        style="fill:url(#z);fill-rule:evenodd"
        inkscape:connector-curvature="0"
    />
    <linearGradient
        id="A"
        y2="1027.8"
        gradientUnits="userSpaceOnUse"
        x2="567.56"
        gradientTransform="matrix(.8 .021 -.021 .8 -401.25 -794.4)"
        y1="1027.8"
        x1="556.81"
      >
      <stop
          id="stop239"
          stop-color="#fff"
          stop-opacity=".949"
          offset="0"
      />
      <stop
          id="stop241"
          stop-color="#ABD9DB"
          offset="1"
      />
    </linearGradient
    >
    <path
        id="path243"
        d="m23.943 39.507-0.68-0.36 0.16-0.08c0.214 0.213 0.387 0.36 0.52 0.44z"
        style="fill:url(#A);fill-rule:evenodd"
        inkscape:connector-curvature="0"
    />
    <linearGradient
        id="B"
        y2="-558.87"
        gradientUnits="userSpaceOnUse"
        x2="1025.2"
        gradientTransform="matrix(-.021 .8 -.8 -.021 -401.25 -794.4)"
        y1="-558.87"
        x1="1020.7"
      >
      <stop
          id="stop246"
          stop-color="#fff"
          stop-opacity=".42"
          offset="0"
      />
      <stop
          id="stop248"
          stop-color="#fff"
          stop-opacity=".028"
          offset="1"
      />
    </linearGradient
    >
    <path
        id="path250"
        d="m23.943 39.507-0.68-0.36 0.16-0.08c0.214 0.213 0.387 0.36 0.52 0.44z"
        style="fill:url(#B);fill-rule:evenodd"
        inkscape:connector-curvature="0"
    />
    <linearGradient
        id="C"
        y2="1025.3"
        gradientUnits="userSpaceOnUse"
        x2="538.69"
        gradientTransform="matrix(.8 0 0 .8 -401.25 -794.4)"
        y1="1035.8"
        x1="538.41"
      >
      <stop
          id="stop253"
          stop-color="#fff"
          stop-opacity=".137"
          offset="0"
      />
      <stop
          id="stop255"
          stop-color="#fff"
          stop-opacity=".028"
          offset="1"
      />
    </linearGradient
    >
    <path
        id="path257"
        d="m28.863 21.947 0.56-0.16c0.268 0.053 0.52 0.013 0.76-0.12l0.08-0.04-0.24 17.48 0.12 0.04c-0.186 0.213-0.373 0.373-0.56 0.48 0.48-0.107 0.707-0.107 0.68 0-0.24 0.16-0.6 0.306-1.08 0.438 0.214-0.213 0.268-0.32 0.16-0.32l-0.16-0.04-0.56 0.2 0.24-17.958z"
        style="fill:url(#C);fill-rule:evenodd"
        inkscape:connector-curvature="0"
    />
    <linearGradient
        id="D"
        y2="1005.7"
        gradientUnits="userSpaceOnUse"
        x2="567.59"
        gradientTransform="matrix(.8 .021 -.021 .8 -401.25 -794.4)"
        y1="1005.7"
        x1="556.01"
      >
      <stop
          id="stop260"
          stop-color="#fff"
          offset="0"
      />
      <stop
          id="stop262"
          stop-color="#ABD9DB"
          offset="1"
      />
    </linearGradient
    >
    <path
        id="path264"
        d="m30.184 21.667c-0.24 0.133-0.493 0.173-0.76 0.12 0.427-0.134 0.706-0.227 0.84-0.28v0.12l-0.08 0.04z"
        style="fill:url(#D);fill-rule:evenodd"
        inkscape:connector-curvature="0"
    />
    <linearGradient
        id="E"
        y2="1022.4"
        gradientUnits="userSpaceOnUse"
        x2="538.81"
        gradientTransform="matrix(.8 0 0 .8 -401.25 -794.4)"
        y1="1026.9"
        x1="538.69"
      >
      <stop
          id="stop267"
          stop-color="#fff"
          stop-opacity=".137"
          offset="0"
      />
      <stop
          id="stop269"
          stop-color="#fff"
          stop-opacity=".028"
          offset="1"
      />
    </linearGradient
    >
    <path
        id="path271"
        d="m30.184 21.667c-0.24 0.133-0.493 0.173-0.76 0.12 0.427-0.134 0.706-0.227 0.84-0.28v0.12l-0.08 0.04z"
        style="fill:url(#E);fill-rule:evenodd"
        inkscape:connector-curvature="0"
    />
    <linearGradient
        id="F"
        y2="1027.8"
        gradientUnits="userSpaceOnUse"
        x2="567.95"
        gradientTransform="matrix(.8 .021 -.021 .8 -401.25 -794.4)"
        y1="1027.8"
        x1="556.39"
      >
      <stop
          id="stop274"
          stop-color="#fff"
          offset="0"
      />
      <stop
          id="stop276"
          stop-color="#ABD9DB"
          offset="1"
      />
    </linearGradient
    >
    <path
        id="path278"
        d="m30.144 39.147c0.213 0.105 0.347 0.213 0.4 0.32l-0.28 0.16c0.026-0.107-0.2-0.107-0.68 0 0.186-0.106 0.373-0.267 0.56-0.48z"
        style="fill:url(#F);fill-rule:evenodd"
        inkscape:connector-curvature="0"
    />
    <linearGradient
        id="G"
        y2="1035.5"
        gradientUnits="userSpaceOnUse"
        x2="539.33"
        gradientTransform="matrix(.8 0 0 .8 -401.25 -794.4)"
        y1="1039.9"
        x1="539.21"
      >
      <stop
          id="stop281"
          stop-color="#fff"
          stop-opacity=".137"
          offset="0"
      />
      <stop
          id="stop283"
          stop-color="#fff"
          stop-opacity=".028"
          offset="1"
      />
    </linearGradient
    >
    <path
        id="path285"
        d="m30.144 39.147c0.213 0.105 0.347 0.213 0.4 0.32l-0.28 0.16c0.026-0.107-0.2-0.107-0.68 0 0.186-0.106 0.373-0.267 0.56-0.48z"
        style="fill:url(#G);fill-rule:evenodd"
        inkscape:connector-curvature="0"
    />
    <path
        id="path287"
        d="m24.823 39.707c0-0.08 0.054-0.146 0.16-0.2l0.6 0.12c0.426 0.213 0.56 0.32 0.4 0.32-0.453 0-0.787-0.054-1-0.16l-0.16-0.08zm1.6 0.36c-0.105-0.054-0.12-0.12-0.04-0.2 0.054-0.054 0.134-0.08 0.24-0.08 0.134 0.026 0.16 0.094 0.08 0.2-0.053 0.106-0.146 0.133-0.28 0.08z"
        style="fill:#ffffff;fill-rule:evenodd"
        inkscape:connector-curvature="0"
    />
    <linearGradient
        id="H"
        y2="1002.7"
        gradientUnits="userSpaceOnUse"
        x2="567.15"
        gradientTransform="matrix(.8 .021 -.021 .8 -401.25 -794.4)"
        y1="1002.7"
        x1="556.58"
      >
      <stop
          id="stop290"
          stop-opacity=".086"
          offset="0"
      />
      <stop
          id="stop292"
          stop-color="#BCD9DB"
          stop-opacity=".42"
          offset="1"
      />
    </linearGradient
    >
    <path
        id="path294"
        d="m31.223 19.387c0 0.453-0.413 0.827-1.24 1.12-0.853 0.293-1.865 0.427-3.04 0.4-1.172-0.027-2.16-0.2-2.96-0.52-0.826-0.348-1.226-0.748-1.2-1.2s0.454-0.827 1.282-1.12c0.853-0.294 1.853-0.428 3-0.4 1.173 0.026 2.16 0.2 2.96 0.52 0.826 0.347 1.225 0.747 1.198 1.2z"
        style="fill:url(#H);fill-rule:evenodd"
        inkscape:connector-curvature="0"
    />
    <linearGradient
        id="I"
        y2="256.58"
        gradientUnits="userSpaceOnUse"
        x2="-1117.5"
        gradientTransform="matrix(-.205 -.773 .773 -.205 -401.25 -794.4)"
        y1="256.58"
        x1="-1124.4"
      >
      <stop
          id="stop297"
          stop-color="#fff"
          stop-opacity=".949"
          offset="0"
      />
      <stop
          id="stop299"
          stop-color="#9AAFB8"
          offset="1"
      />
    </linearGradient
    >
    <path
        id="path301"
        d="m30.464 21.187c0.986-0.4 1.493-0.893 1.52-1.48s-0.453-1.093-1.44-1.52c-0.96-0.4-2.133-0.626-3.52-0.68-1.387-0.027-2.573 0.16-3.56 0.56-0.987 0.374-1.48 0.854-1.48 1.44-0.026 0.587 0.44 1.093 1.4 1.52s2.134 0.653 3.52 0.68c1.386 0.054 2.573-0.12 3.56-0.52zm0.36-3.04c1.012 0.506 1.506 1.093 1.48 1.76-0.027 0.666-0.562 1.213-1.602 1.64-1.04 0.453-2.307 0.667-3.8 0.64-1.467-0.026-2.707-0.293-3.72-0.8-1.04-0.48-1.547-1.053-1.52-1.72 0.026-0.667 0.572-1.227 1.64-1.68 1.04-0.427 2.293-0.626 3.76-0.6s2.72 0.28 3.76 0.76z"
        style="fill:url(#I);fill-rule:evenodd"
        inkscape:connector-curvature="0"
    />
    <linearGradient
        id="J"
        y2="751.24"
        gradientUnits="userSpaceOnUse"
        x2="874.93"
        gradientTransform="matrix(.745 .292 -.292 .745 -401.25 -794.4)"
        y1="751.24"
        x1="864.94"
      >
      <stop
          id="stop304"
          stop-color="#fff"
          stop-opacity=".949"
          offset="0"
      />
      <stop
          id="stop306"
          stop-color="#ABD9DB"
          offset="1"
      />
    </linearGradient
    >
    <path
        id="path308"
        d="m29.403 17.987c0.245 0.068 0.48 0.148 0.7 0.24 0.773 0.347 1.146 0.733 1.12 1.16 0 0.453-0.414 0.827-1.24 1.12-0.854 0.293-1.866 0.427-3.04 0.4-1.173-0.027-2.16-0.2-2.96-0.52-0.827-0.348-1.227-0.748-1.2-1.2s0.453-0.827 1.28-1.12c0.406-0.14 0.846-0.24 1.32-0.3-0.423 0.066-0.81 0.166-1.16 0.3-0.8 0.293-1.213 0.653-1.24 1.08-0.026 0.426 0.36 0.8 1.16 1.12 0.773 0.32 1.72 0.494 2.84 0.52 1.094 0.053 2.04-0.066 2.84-0.36 0.8-0.293 1.213-0.667 1.24-1.12 0-0.427-0.36-0.8-1.08-1.12-0.186-0.073-0.38-0.14-0.58-0.2z"
        style="fill:url(#J);fill-rule:evenodd"
        inkscape:connector-curvature="0"
    />
    <linearGradient
        id="K"
        y2="1002.8"
        gradientUnits="userSpaceOnUse"
        x2="567.15"
        gradientTransform="matrix(.8 .021 -.021 .8 -401.25 -794.4)"
        y1="1002.8"
        x1="556.58"
      >
      <stop
          id="stop311"
          stop-color="#fff"
          stop-opacity=".949"
          offset="0"
      />
      <stop
          id="stop313"
          stop-color="#9AAFB8"
          offset="1"
      />
    </linearGradient
    >
    <path
        id="path315"
        d="m28.223 17.748c0.68 0.085 1.28 0.232 1.8 0.44 0.828 0.346 1.228 0.746 1.2 1.2 0 0.452-0.413 0.826-1.24 1.12-0.853 0.292-1.865 0.426-3.04 0.4-1.172-0.028-2.16-0.2-2.96-0.522-0.826-0.347-1.226-0.747-1.2-1.2s0.454-0.826 1.282-1.12c0.206-0.07 0.42-0.13 0.64-0.18-0.163 0.042-0.323 0.087-0.48 0.14-0.772 0.294-1.16 0.653-1.16 1.08-0.026 0.428 0.347 0.8 1.12 1.12 0.748 0.295 1.668 0.454 2.76 0.48 1.094 0.027 2.04-0.106 2.84-0.4 0.774-0.266 1.175-0.612 1.2-1.04 0-0.427-0.373-0.787-1.12-1.08-0.485-0.2-1.032-0.346-1.642-0.438z"
        style="fill:url(#K);fill-rule:evenodd"
        inkscape:connector-curvature="0"
    />
    <path
        id="path317"
        d="m22.064 12.947 0.8-0.4c0.773-0.293 1.827-0.507 3.16-0.64 1.493-0.16 2.867-0.067 4.12 0.28 0.64 0.187 1.134 0.373 1.48 0.56l-0.52 6.64c-0.108 0.213-0.348 0.427-0.722 0.64-0.8 0.427-1.933 0.627-3.4 0.6-1.52-0.026-2.666-0.24-3.44-0.64l-0.72-0.64c-0.158-1.92-0.292-3.16-0.4-3.72l-0.358-2.68z"
        style="fill:#a78a56;fill-rule:evenodd"
        inkscape:connector-curvature="0"
    />
    <path
        id="path319"
        d="m23.383 13.467 1.8 0.48c0.32 0.08 0.987 0.093 2 0.04h1.12c0.08-0.026 0.146-0.066 0.2-0.12 0.026-0.106 0.053-0.173 0.08-0.2 0-0.106 0.053-0.146 0.16-0.12 0 0.187 0.08 0.347 0.24 0.48 0.025 0.026 0.2 0.08 0.52 0.16 0.187 0.053 0.28 0.16 0.28 0.32-0.027 0.187-0.147 0.346-0.36 0.48-0.027 0-0.214 0.065-0.56 0.2-0.587 0.186-1.468 0.278-2.64 0.278-1.174 0.054-2.094-0.026-2.76-0.24-0.428-0.16-0.814-0.36-1.16-0.6l-0.24-1.68c0.158 0 0.305 0.053 0.44 0.16 0.187 0.162 0.48 0.282 0.88 0.362z"
        style="fill:#cba769;fill-rule:evenodd"
        inkscape:connector-curvature="0"
    />
    <linearGradient
        id="L"
        y2="-1013.9"
        gradientUnits="userSpaceOnUse"
        x2="-522.07"
        gradientTransform="matrix(-.8 .008 -.008 -.8 -401.25 -794.4)"
        y1="-1013.9"
        x1="-524.57"
      >
      <stop
          id="stop322"
          stop-color="#C1A064"
          offset="0"
      />
      <stop
          id="stop324"
          stop-color="#706341"
          offset="1"
      />
    </linearGradient
    >
    <path
        id="path326"
        d="m25.783 12.348c0.134 0 0.2 0.053 0.2 0.16-0.027 0.08-0.08 0.16-0.16 0.24-0.08 0.053-0.267 0.08-0.56 0.08h-1.24c0-0.32 0.44-0.48 1.32-0.48h0.44z"
        style="fill:url(#L);fill-rule:evenodd"
        inkscape:connector-curvature="0"
    />
    <linearGradient
        id="M"
        y2="-1016.9"
        gradientUnits="userSpaceOnUse"
        x2="-519.81"
        gradientTransform="matrix(-.8 .011 -.011 -.8 -401.25 -794.4)"
        y1="-1016.9"
        x1="-521.53"
      >
      <stop
          id="stop329"
          stop-color="#C1A064"
          offset="0"
      />
      <stop
          id="stop331"
          stop-color="#706341"
          offset="1"
      />
    </linearGradient
    >
    <path
        id="path333"
        d="m25.904 13.267c-0.053-0.187 0.226-0.28 0.84-0.28l0.48 0.08c-0.08 0.134-0.16 0.228-0.24 0.28h-0.36l-0.72-0.08z"
        style="fill:url(#M);fill-rule:evenodd"
        inkscape:connector-curvature="0"
    />
    <linearGradient
        id="N"
        y2="-1008.4"
        gradientUnits="userSpaceOnUse"
        x2="-536.01"
        gradientTransform="matrix(-.8 0 0 -.8 -401.25 -794.4)"
        y1="-1008.4"
        x1="-536.59"
      >
      <stop
          id="stop336"
          stop-color="#C1A064"
          offset="0"
      />
      <stop
          id="stop338"
          stop-color="#706341"
          offset="1"
      />
    </linearGradient
    >
    <path
        id="path340"
        d="m27.543 12.387v-0.12h0.2l0.24 0.12z"
        style="fill:url(#N);fill-rule:evenodd"
        inkscape:connector-curvature="0"
    />
    <linearGradient
        id="O"
        y2="-1013.4"
        gradientUnits="userSpaceOnUse"
        x2="-528.95"
        gradientTransform="matrix(-.8 .008 -.008 -.8 -401.25 -794.4)"
        y1="-1013.4"
        x1="-532.7"
      >
      <stop
          id="stop343"
          stop-color="#C1A064"
          offset="0"
      />
      <stop
          id="stop345"
          stop-color="#706341"
          offset="1"
      />
    </linearGradient
    >
    <path
        id="path347"
        d="m29.543 12.308c-0.133-0.107-0.16-0.2-0.08-0.28l1.36 0.36h-0.12c-0.667 0-1.053-0.027-1.16-0.08z"
        style="fill:url(#O);fill-rule:evenodd"
        inkscape:connector-curvature="0"
    />
    <linearGradient
        id="P"
        y2="-1008.9"
        gradientUnits="userSpaceOnUse"
        x2="-539.89"
        gradientTransform="matrix(-.8 0 0 -.8 -401.25 -794.4)"
        y1="-1008.9"
        x1="-540.71"
      >
      <stop
          id="stop350"
          stop-color="#C1A064"
          offset="0"
      />
      <stop
          id="stop352"
          stop-color="#706341"
          offset="1"
      />
    </linearGradient
    >
    <path
        id="path354"
        d="m30.623 12.748v-0.12h0.64c-0.08 0.16-0.293 0.2-0.64 0.12z"
        style="fill:url(#P);fill-rule:evenodd"
        inkscape:connector-curvature="0"
    />
    <path
        id="path356"
        d="m22.423 15.627-0.36-2.68 0.88 0.68c0.88 0.453 2.013 0.667 3.4 0.64l3.36-0.04c-0.134-0.08-0.254-0.187-0.36-0.32-0.214-0.212-0.267-0.36-0.16-0.44 0.106-0.106 0.373-0.106 0.8 0 0.24 0.054 0.453 0.107 0.64 0.16 0.48-0.133 0.813-0.426 1-0.88l-0.52 6.64c-0.107 0.214-0.347 0.428-0.72 0.64-0.8 0.428-1.934 0.628-3.4 0.6-1.52-0.025-2.667-0.24-3.44-0.64l-0.72-0.64c-0.16-1.92-0.293-3.16-0.4-3.72z"
        style="fill:#a58d54;fill-rule:evenodd"
        inkscape:connector-curvature="0"
    />
    <path
        id="path358"
        d="m26.903 18.827c-0.213 0.267-0.24 0.467-0.08 0.6 0.213 0.16 0.387 0.08 0.52-0.24-0.025-0.107-0.106-0.16-0.24-0.16l-0.2-0.2zm1.44-0.96c0-0.293-0.04-0.453-0.12-0.48l-0.12-0.12c-0.052 0.08-0.08 0.28-0.08 0.6h0.32zm-0.12-1.76c0.188 0.027 0.28-0.08 0.28-0.32 0.027-0.347-0.053-0.586-0.24-0.72h-0.2c-0.186 0-0.253 0.173-0.2 0.52 0.054 0.32 0.173 0.493 0.36 0.52zm-2.92-1.48c-0.212-0.08-0.426-0.227-0.64-0.44l-0.12-0.08c0.454 0.107 1.054 0.16 1.8 0.16l3.24-0.04c0.054 0.188 0.134 0.295 0.24 0.32 0.08 0.107 0.2 0.16 0.36 0.16 0.267-0.026 0.4-0.32 0.4-0.88l-0.04-0.2h0.16c0 0.588-0.107 0.948-0.32 1.082-0.134 0.08-0.36 0.1-0.68 0.08-0.32-0.03-0.468-0.14-0.44-0.32-0.428-0.11-0.747-0.16-0.96-0.16l-1.28 0.04c0.8 0.13 1.373 0.3 1.72 0.52 0.134 0.08 0.28 0.24 0.44 0.48 0.106 0.08 0.227 0.18 0.36 0.32 0.106 0.1 0.16 0.25 0.16 0.44 0 0.16-0.12 0.36-0.36 0.6-0.214 0.26-0.32 0.46-0.32 0.6l0.12 0.36-0.2 0.44c-0.134 0.18-0.2 0.3-0.2 0.35-0.026 0.106-0.013 0.24 0.04 0.4 0.053 0.24-0.026 0.4-0.24 0.48-0.133 0.026-0.266 0.013-0.4-0.04-0.186-0.108-0.307-0.16-0.36-0.16-0.025 0.105-0.105 0.186-0.24 0.24l-0.158 0.08-0.16 0.12c-0.027 0-0.24 0.04-0.64 0.12-0.214 0.19-0.414 0.293-0.6 0.32-0.268 0-0.708-0.094-1.32-0.28-0.108 0-0.174-0.014-0.2-0.04-0.028 0-0.068-0.054-0.12-0.16-0.028-0.107-0.08-0.2-0.16-0.28-0.16-0.08-0.28-0.17-0.36-0.28-0.24 0.16-0.507 0.15-0.8-0.04l-0.28-0.28-0.08-1.04 0.24 0.36c0.212 0.266 0.412 0.35 0.6 0.24 0.105-0.026 0.212-0.106 0.318-0.24 0.213 0.374 0.52 0.613 0.92 0.72 0.107 0.026 0.293 0.053 0.56 0.08 0.187 0.053 0.28 0.173 0.28 0.36 0.187 0.053 0.333 0.026 0.44-0.08 0.054-0.027 0.094-0.107 0.12-0.24 0.026-0.107 0.066-0.174 0.12-0.2 0.106 0.16 0.293 0.172 0.56 0.04 0.054-0.374 0.2-0.6 0.44-0.68 0.106 0 0.214-0.014 0.32-0.04 0.08-0.027 0.146-0.12 0.2-0.28 0.025-0.188 0.013-0.44-0.04-0.76-0.054-0.107-0.135-0.2-0.24-0.28-0.134-0.08-0.214-0.04-0.24 0.12-0.213-0.027-0.373-0.187-0.48-0.48l-0.28-0.72c-0.213-0.348-0.613-0.654-1.2-0.92z"
        style="fill:#8b7347;fill-rule:evenodd"
        inkscape:connector-curvature="0"
    />
    <path
        id="path360"
        d="m30.543 13.627 0.04 0.2c0 0.56-0.133 0.853-0.4 0.88-0.16 0-0.28-0.054-0.36-0.16 0.188 0.106 0.36 0.053 0.522-0.16 0.08-0.08 0.12-0.24 0.12-0.48-0.027-0.186-0.134-0.306-0.32-0.36-0.502-0.184-0.835-0.197-1-0.04l0.04-0.04c0.16-0.133 0.612-0.08 1.358 0.16z"
        style="fill:#615031;fill-rule:evenodd"
        inkscape:connector-curvature="0"
    />
    <path
        id="path362"
        d="m29.823 16.787h-0.28c-0.16 0.027-0.253 0.16-0.28 0.4 0 0.213 0.067 0.347 0.2 0.4 0.24 0.08 0.388 0.013 0.44-0.2 0.054-0.213 0.027-0.413-0.08-0.6zm0.56-2.08c0.214-0.132 0.32-0.493 0.32-1.08l0.12-0.08c0.08 0.32 0.12 0.506 0.12 0.56 0.026 0.16-0.014 0.414-0.12 0.76l-0.04 1c0 0.24-0.106 0.48-0.32 0.72-0.106 0.16-0.12 0.454-0.04 0.88l0.12 0.72c-0.08 0.4-0.187 0.667-0.32 0.8l-0.28 0.12c-0.106 0.053-0.173 0.146-0.2 0.28-0.212 0-0.452 0.093-0.72 0.28-0.372 0.24-0.586 0.374-0.64 0.4-0.187 0.107-0.466 0.16-0.84 0.16h-0.88c-0.586 0-1.027-0.026-1.32-0.08-0.266 0-0.466-0.027-0.6-0.08-0.32-0.16-0.56-0.254-0.72-0.28l-0.64-0.16-0.56-0.28-0.08-0.68 0.28 0.28c0.293 0.186 0.56 0.2 0.8 0.04 0.08 0.106 0.2 0.2 0.36 0.28 0.08 0.08 0.133 0.172 0.16 0.28 0.053 0.105 0.093 0.16 0.12 0.16 0.026 0.025 0.093 0.04 0.2 0.04 0.613 0.186 1.053 0.278 1.32 0.278 0.187-0.026 0.387-0.133 0.6-0.32 0.4-0.08 0.613-0.12 0.64-0.12l0.16-0.12 0.16-0.08c0.134-0.053 0.214-0.134 0.24-0.24 0.053 0 0.174 0.053 0.36 0.16 0.134 0.053 0.267 0.066 0.4 0.04 0.213-0.08 0.292-0.24 0.24-0.48-0.054-0.16-0.067-0.293-0.04-0.4 0-0.053 0.065-0.172 0.2-0.36l0.2-0.44-0.12-0.358c0-0.134 0.105-0.333 0.32-0.6 0.238-0.24 0.358-0.44 0.358-0.6 0-0.187-0.05-0.333-0.16-0.44-0.13-0.133-0.25-0.24-0.35-0.32-0.16-0.24-0.306-0.4-0.44-0.48-0.346-0.213-0.92-0.387-1.72-0.52l1.28-0.04c0.214 0 0.53 0.053 0.96 0.16-0.026 0.186 0.12 0.293 0.44 0.32s0.55 0 0.68-0.08z"
        style="fill:#735e39;fill-rule:evenodd"
        inkscape:connector-curvature="0"
    />
    <path
        id="path364"
        d="m30.823 13.547c0.373-0.187 0.64-0.453 0.8-0.8l-0.32 2.88c-0.186 0-0.252 0.16-0.2 0.48 0 0.212 0.054 0.332 0.16 0.358l-0.16 2.92c-0.106 0.213-0.346 0.427-0.72 0.64-0.8 0.427-1.933 0.627-3.4 0.6-1.44-0.026-2.546-0.227-3.318-0.6-0.428-0.213-0.707-0.44-0.84-0.68l0.56 0.28 0.64 0.16c0.16 0.027 0.4 0.12 0.72 0.28 0.132 0.054 0.332 0.08 0.6 0.08 0.292 0.054 0.733 0.08 1.32 0.08h0.88c0.373 0 0.652-0.052 0.84-0.16 0.053-0.025 0.267-0.158 0.64-0.4 0.267-0.186 0.507-0.28 0.72-0.28 0.026-0.133 0.093-0.226 0.2-0.28l0.28-0.12c0.133-0.133 0.24-0.4 0.32-0.8l-0.12-0.72c-0.08-0.425-0.067-0.718 0.04-0.878 0.213-0.24 0.32-0.48 0.32-0.72l0.04-1c0.105-0.347 0.145-0.6 0.12-0.76-0.002-0.053-0.042-0.24-0.122-0.56z"
        style="fill:#4d4027;fill-rule:evenodd"
        inkscape:connector-curvature="0"
    />
    <linearGradient
        id="Q"
        y2="400.58"
        gradientUnits="userSpaceOnUse"
        x2="-1069.6"
        gradientTransform="matrix(-.1 -.794 .794 -.1 -401.25 -794.4)"
        y1="400.58"
        x1="-1071.7"
      >
      <stop
          id="stop367"
          stop-color="#C1A064"
          offset="0"
      />
      <stop
          id="stop369"
          stop-color="#706341"
          offset="1"
      />
    </linearGradient
    >
    <path
        id="path371"
        d="m23.623 16.227c-0.32 0.053-0.533-0.187-0.64-0.72-0.026-0.24 0-0.454 0.08-0.64 0.08-0.16 0.188-0.253 0.32-0.28 0.134-0.027 0.267 0.04 0.4 0.2 0.134 0.134 0.213 0.307 0.24 0.52 0.107 0.56-0.026 0.867-0.4 0.92z"
        style="fill:url(#Q);fill-rule:evenodd"
        inkscape:connector-curvature="0"
    />
    <linearGradient
        id="R"
        y2="403.58"
        gradientUnits="userSpaceOnUse"
        x2="-1070.8"
        gradientTransform="matrix(-.099 -.794 .794 -.099 -401.25 -794.4)"
        y1="403.58"
        x1="-1073.2"
      >
      <stop
          id="stop374"
          stop-color="#C1A064"
          offset="0"
      />
      <stop
          id="stop376"
          stop-color="#706341"
          offset="1"
      />
    </linearGradient
    >
    <path
        id="path378"
        d="m25.983 17.387c-0.533 0.24-0.947 0.066-1.24-0.52-0.293-0.587-0.187-1.027 0.32-1.32h0.24c0.293 0 0.493 0.026 0.6 0.08 0.187 0.08 0.306 0.253 0.36 0.52 0.08 0.72-0.012 1.133-0.28 1.24z"
        style="fill:url(#R);fill-rule:evenodd"
        inkscape:connector-curvature="0"
    />
    <linearGradient
        id="S"
        y2="402.98"
        gradientUnits="userSpaceOnUse"
        x2="-1071.6"
        gradientTransform="matrix(-.098 -.794 .794 -.098 -401.25 -794.4)"
        y1="402.98"
        x1="-1072.7"
      >
      <stop
          id="stop381"
          stop-color="#C1A064"
          offset="0"
      />
      <stop
          id="stop383"
          stop-color="#706341"
          offset="1"
      />
    </linearGradient
    >
    <path
        id="path385"
        d="m23.744 17.387c-0.08-0.453-0.013-0.68 0.2-0.68l0.32 0.04c0.187 0.106 0.24 0.4 0.16 0.88-0.347 0.053-0.573-0.026-0.68-0.24z"
        style="fill:url(#S);fill-rule:evenodd"
        inkscape:connector-curvature="0"
    />
    <linearGradient
        id="T"
        y2="414.56"
        gradientUnits="userSpaceOnUse"
        x2="-1066.6"
        gradientTransform="matrix(-.088 -.795 .795 -.088 -401.25 -794.4)"
        y1="414.56"
        x1="-1067.3"
      >
      <stop
          id="stop388"
          stop-color="#C1A064"
          offset="0"
      />
      <stop
          id="stop390"
          stop-color="#706341"
          offset="1"
      />
    </linearGradient
    >
    <path
        id="path392"
        d="m22.583 16.987c0.24-0.08 0.333 0.066 0.28 0.44l-0.2 0.08-0.08-0.52z"
        style="fill:url(#T);fill-rule:evenodd"
        inkscape:connector-curvature="0"
    />
    <path
        id="path394"
        d="m28.223 16.107c-0.187-0.027-0.306-0.2-0.36-0.52-0.053-0.347 0.015-0.52 0.2-0.52h0.2c0.188 0.133 0.268 0.373 0.24 0.72 0 0.24-0.093 0.347-0.28 0.32z"
        style="fill:#705c39;fill-rule:evenodd"
        inkscape:connector-curvature="0"
    />
    <linearGradient
        id="U"
        y2="403.34"
        gradientUnits="userSpaceOnUse"
        x2="-1072.1"
        gradientTransform="matrix(-.102 -.793 .793 -.102 -401.25 -794.4)"
        y1="403.34"
        x1="-1073.4"
      >
      <stop
          id="stop397"
          stop-color="#C1A064"
          offset="0"
      />
      <stop
          id="stop399"
          stop-color="#706341"
          offset="1"
      />
    </linearGradient
    >
    <path
        id="path401"
        d="m28.223 16.107c-0.187-0.027-0.306-0.2-0.36-0.52-0.053-0.347 0.015-0.52 0.2-0.52h0.2c0.188 0.133 0.268 0.373 0.24 0.72 0 0.24-0.093 0.347-0.28 0.32z"
        style="fill:url(#U);fill-rule:evenodd"
        inkscape:connector-curvature="0"
    />
    <path
        id="path403"
        d="m28.223 17.387c0.08 0.026 0.12 0.187 0.12 0.48h-0.32c0-0.32 0.028-0.52 0.08-0.6l0.12 0.12z"
        style="fill:#705c39;fill-rule:evenodd"
        inkscape:connector-curvature="0"
    />
    <linearGradient
        id="V"
        y2="400.19"
        gradientUnits="userSpaceOnUse"
        x2="-1075.8"
        gradientTransform="matrix(-.104 -.793 .793 -.104 -401.25 -794.4)"
        y1="400.19"
        x1="-1076.6"
      >
      <stop
          id="stop406"
          stop-color="#C1A064"
          offset="0"
      />
      <stop
          id="stop408"
          stop-color="#706341"
          offset="1"
      />
    </linearGradient
    >
    <path
        id="path410"
        d="m28.223 17.387c0.08 0.026 0.12 0.187 0.12 0.48h-0.32c0-0.32 0.028-0.52 0.08-0.6l0.12 0.12z"
        style="fill:url(#V);fill-rule:evenodd"
        inkscape:connector-curvature="0"
    />
    <path
        id="path412"
        d="m27.104 19.027c0.133 0 0.214 0.053 0.24 0.16-0.134 0.32-0.308 0.4-0.52 0.24-0.16-0.133-0.134-0.333 0.08-0.6l0.2 0.2z"
        style="fill:#705c39;fill-rule:evenodd"
        inkscape:connector-curvature="0"
    />
    <linearGradient
        id="W"
        y2="412.86"
        gradientUnits="userSpaceOnUse"
        x2="-1080.8"
        gradientTransform="matrix(-.093 -.794 .793 -.11 -401.25 -794.4)"
        y1="412.86"
        x1="-1081.6"
      >
      <stop
          id="stop415"
          stop-color="#C1A064"
          offset="0"
      />
      <stop
          id="stop417"
          stop-color="#706341"
          offset="1"
      />
    </linearGradient
    >
    <path
        id="path419"
        d="m27.104 19.027c0.133 0 0.214 0.053 0.24 0.16-0.134 0.32-0.308 0.4-0.52 0.24-0.16-0.133-0.134-0.333 0.08-0.6l0.2 0.2z"
        style="fill:url(#W);fill-rule:evenodd"
        inkscape:connector-curvature="0"
    />
    <path
        id="path421"
        d="m29.543 16.787h0.28c0.106 0.187 0.134 0.387 0.08 0.6-0.053 0.213-0.2 0.28-0.44 0.2-0.133-0.053-0.2-0.187-0.2-0.4 0.027-0.24 0.12-0.373 0.28-0.4z"
        style="fill:#615031;fill-rule:evenodd"
        inkscape:connector-curvature="0"
    />
    <linearGradient
        id="X"
        y2="414.79"
        gradientUnits="userSpaceOnUse"
        x2="-1070.6"
        gradientTransform="matrix(-.095 -.794 .794 -.095 -401.25 -794.4)"
        y1="414.79"
        x1="-1071.6"
      >
      <stop
          id="stop424"
          stop-color="#C1A064"
          offset="0"
      />
      <stop
          id="stop426"
          stop-color="#706341"
          offset="1"
      />
    </linearGradient
    >
    <path
        id="path428"
        d="m29.543 16.787h0.28c0.106 0.187 0.134 0.387 0.08 0.6-0.053 0.213-0.2 0.28-0.44 0.2-0.133-0.053-0.2-0.187-0.2-0.4 0.027-0.24 0.12-0.373 0.28-0.4z"
        style="fill:url(#X);fill-rule:evenodd"
        inkscape:connector-curvature="0"
    />
    <path
        id="path430"
        d="m31.104 16.107c-0.053-0.32 0.014-0.48 0.2-0.48l-0.04 0.84c-0.108-0.027-0.16-0.146-0.16-0.36z"
        style="fill:#4d4027;fill-rule:evenodd"
        inkscape:connector-curvature="0"
    />
    <linearGradient
        id="Y"
        y2="419.97"
        gradientUnits="userSpaceOnUse"
        x2="-1075.3"
        gradientTransform="matrix(-.092 -.795 .793 -.106 -401.25 -794.4)"
        y1="419.97"
        x1="-1076.4"
      >
      <stop
          id="stop433"
          stop-color="#C1A064"
          offset="0"
      />
      <stop
          id="stop435"
          stop-color="#706341"
          offset="1"
      />
    </linearGradient
    >
    <path
        id="path437"
        d="m31.104 16.107c-0.053-0.32 0.014-0.48 0.2-0.48l-0.04 0.84c-0.108-0.027-0.16-0.146-0.16-0.36z"
        style="fill:url(#Y);fill-rule:evenodd"
        inkscape:connector-curvature="0"
    />
    <path
        id="path439"
        d="m30.144 13.547c0.187 0.053 0.293 0.173 0.32 0.36 0 0.24-0.04 0.4-0.12 0.48-0.16 0.212-0.334 0.266-0.52 0.16l-0.2-0.32h0.08l-0.12-0.08-0.28-0.28-0.12-0.2-0.04-0.16c0.16-0.16 0.493-0.146 1 0.04z"
        style="fill:#615031;fill-rule:evenodd"
        inkscape:connector-curvature="0"
    />
    <linearGradient
        id="Z"
        y2="407.15"
        gradientUnits="userSpaceOnUse"
        x2="-1069.7"
        gradientTransform="matrix(-.101 -.794 .794 -.101 -401.25 -794.4)"
        y1="407.15"
        x1="-1071.2"
      >
      <stop
          id="stop442"
          stop-color="#C1A064"
          offset="0"
      />
      <stop
          id="stop444"
          stop-color="#706341"
          offset="1"
      />
    </linearGradient
    >
    <path
        id="path446"
        d="m30.144 13.547c0.187 0.053 0.293 0.173 0.32 0.36 0 0.24-0.04 0.4-0.12 0.48-0.16 0.212-0.334 0.266-0.52 0.16l-0.2-0.32h0.08l-0.12-0.08-0.28-0.28-0.12-0.2-0.04-0.16c0.16-0.16 0.493-0.146 1 0.04z"
        style="fill:url(#Z);fill-rule:evenodd"
        inkscape:connector-curvature="0"
    />
    <radialGradient
        id="aa"
        gradientUnits="userSpaceOnUse"
        cy="-244.2"
        cx="1148.9"
        gradientTransform="matrix(.205 .773 .786 -.208 -20.437 -895.23)"
        r="20.443"
      >
      <stop
          id="stop449"
          stop-color="#FBF5E2"
          offset="0"
      />
      <stop
          id="stop451"
          stop-color="#F6F0DB"
          offset=".071"
      />
      <stop
          id="stop453"
          stop-color="#E3DCC1"
          offset=".431"
      />
      <stop
          id="stop455"
          stop-color="#D7D0B1"
          offset=".749"
      />
      <stop
          id="stop457"
          stop-color="#D3CCAC"
          offset="1"
      />
    </radialGradient
    >
    <path
        id="path459"
        d="m19.864 54.826-1.4-0.92c-0.827-0.746-1.347-1.853-1.56-3.32-0.294-2.025-0.04-4.105 0.76-6.24l1.28-2.6c1.92 1.094 4.692 1.588 8.32 1.48 1.812-0.053 3.426-0.213 4.84-0.48l0.56 1.92c0.372 1.468 0.6 2.694 0.68 3.68 0.106 1.574-0.147 3.8-0.76 6.68-0.294 0.24-0.84 0.455-1.64 0.64-1.6 0.375-3.693 0.47-6.28 0.282-1.894-0.135-3.494-0.51-4.8-1.122z"
        style="fill:url(#aa);fill-rule:evenodd"
        inkscape:connector-curvature="0"
    />
    <radialGradient
        id="ab"
        gradientUnits="userSpaceOnUse"
        cy="122.01"
        cx="1167.5"
        gradientTransform="matrix(.433 .673 .673 -.433 -565.41 -688.77)"
        r="17.094"
      >
      <stop
          id="stop462"
          stop-color="#80937E"
          offset="0"
      />
      <stop
          id="stop464"
          stop-color="#6A8170"
          offset=".38"
      />
      <stop
          id="stop466"
          stop-color="#5C7566"
          offset=".729"
      />
      <stop
          id="stop468"
          stop-color="#577163"
          offset="1"
      />
    </radialGradient
    >
    <path
        id="path470"
        d="m19.184 46.747c-0.32 0.746-0.333 1.36-0.04 1.84s0.72 0.733 1.28 0.76c0.507 0.026 0.92-0.106 1.24-0.4 0.427-0.373 0.72-0.826 0.88-1.36 0.16-0.506 0.16-0.933 0-1.28-0.213-0.425-0.507-0.72-0.88-0.88-0.48-0.24-0.986-0.226-1.52 0.04-0.347 0.186-0.667 0.613-0.96 1.28zm-1.28 2.64c-0.507-0.747-0.467-1.747 0.12-3 0.507-1.12 1.067-1.813 1.68-2.08 0.906-0.426 1.787-0.453 2.64-0.08 0.693 0.32 1.213 0.813 1.56 1.48 0.426 0.854 0.266 1.866-0.48 3.04 1.04 0.88 1.986 1.587 2.84 2.12l0.84 0.48 0.52-0.64c0.428-0.668 0.773-1 1.04-1 0.214 0 0.414 0.052 0.6 0.158 0.24 0.16 0.347 0.374 0.32 0.64-0.026 0.4-0.36 0.947-1 1.64l0.64 0.36 0.48-0.6c0.427-0.693 0.773-1.04 1.04-1.04 0.214 0 0.4 0.067 0.56 0.2 0.24 0.16 0.348 0.373 0.32 0.64-0.026 0.374-0.346 0.92-0.96 1.64 0.24 0.16 0.347 0.268 0.32 0.32-0.026 0.24-0.133 0.454-0.32 0.64-0.24 0.215-0.546 0.308-0.92 0.28-0.666-0.105-1.92-0.705-3.76-1.8l-3.96-2.6c-0.613 0.374-1.307 0.507-2.08 0.4-0.88-0.105-1.56-0.505-2.04-1.198z"
        style="fill:url(#ab);fill-rule:evenodd"
        inkscape:connector-curvature="0"
    />
  </g
  >
  <metadata
    >
    <rdf:RDF
      >
      <cc:Work
        >
        <dc:format
          >image/svg+xml</dc:format
        >
        <dc:type
            rdf:resource="http://purl.org/dc/dcmitype/StillImage"
        />
        <cc:license
            rdf:resource="http://creativecommons.org/licenses/publicdomain/"
        />
        <dc:publisher
          >
          <cc:Agent
              rdf:about="http://openclipart.org/"
            >
            <dc:title
              >Openclipart</dc:title
            >
          </cc:Agent
          >
        </dc:publisher
        >
      </cc:Work
      >
      <cc:License
          rdf:about="http://creativecommons.org/licenses/publicdomain/"
        >
        <cc:permits
            rdf:resource="http://creativecommons.org/ns#Reproduction"
        />
        <cc:permits
            rdf:resource="http://creativecommons.org/ns#Distribution"
        />
        <cc:permits
            rdf:resource="http://creativecommons.org/ns#DerivativeWorks"
        />
      </cc:License
      >
    </rdf:RDF
    >
  </metadata
  >
</svg
>
