<?xml version="1.0" encoding="UTF-8" standalone="no"?>
<svg
   xmlns:dc="http://purl.org/dc/elements/1.1/"
   xmlns:cc="http://creativecommons.org/ns#"
   xmlns:rdf="http://www.w3.org/1999/02/22-rdf-syntax-ns#"
   xmlns:svg="http://www.w3.org/2000/svg"
   xmlns="http://www.w3.org/2000/svg"
   xmlns:xlink="http://www.w3.org/1999/xlink"
   xmlns:sodipodi="http://sodipodi.sourceforge.net/DTD/sodipodi-0.dtd"
   xmlns:inkscape="http://www.inkscape.org/namespaces/inkscape"
   width="135.6757"
   height="187.33771"
   viewBox="0 0 135.6757 281.00657"
   version="1.1"
   id="svg99"
   sodipodi:docname="trophy.svg"
   inkscape:version="0.92.2 5c3e80d, 2017-08-06"
   inkscape:export-filename="/home/nico/Documents/Devel/Qt/GAMISNE/Images/Achievements/trophy.png"
   inkscape:export-xdpi="70.717209"
   inkscape:export-ydpi="70.717209">
  <metadata
     id="metadata103">
    <rdf:RDF>
      <cc:Work
         rdf:about="">
        <dc:format>image/svg+xml</dc:format>
        <dc:type
           rdf:resource="http://purl.org/dc/dcmitype/StillImage" />
        <dc:title />
      </cc:Work>
    </rdf:RDF>
  </metadata>
  <sodipodi:namedview
     pagecolor="#ffffff"
     bordercolor="#666666"
     borderopacity="1"
     objecttolerance="10"
     gridtolerance="10"
     guidetolerance="10"
     inkscape:pageopacity="0"
     inkscape:pageshadow="2"
     inkscape:window-width="1362"
     inkscape:window-height="729"
     id="namedview101"
     showgrid="false"
     fit-margin-top="0"
     fit-margin-left="0"
     fit-margin-right="0"
     fit-margin-bottom="0"
     inkscape:zoom="2.36"
     inkscape:cx="-12.470609"
     inkscape:cy="90.308639"
     inkscape:window-x="0"
     inkscape:window-y="18"
     inkscape:window-maximized="0"
     inkscape:current-layer="svg99" />
  <defs
     id="defs59">
    <filter
       id="m">
      <feGaussianBlur
         stdDeviation="2.73215"
         id="feGaussianBlur2" />
    </filter>
    <filter
       id="o"
       x="-0.13795"
       y="-0.05116"
       width="1.2759"
       height="1.1023">
      <feGaussianBlur
         stdDeviation="3.25158"
         id="feGaussianBlur5" />
    </filter>
    <filter
       id="n"
       x="-0.12734"
       y="-0.047230002"
       width="1.2546999"
       height="1.0944">
      <feGaussianBlur
         stdDeviation="3.00146"
         id="feGaussianBlur8" />
    </filter>
    <filter
       id="l"
       x="-0.28636"
       y="-0.067380004"
       width="1.5727"
       height="1.1348">
      <feGaussianBlur
         stdDeviation="2.14773"
         id="feGaussianBlur11" />
    </filter>
    <filter
       id="k"
       x="-0.13296001"
       y="-4.0853"
       width="1.2659"
       height="9.1707001">
      <feGaussianBlur
         stdDeviation="9.36225"
         id="feGaussianBlur14" />
    </filter>
    <linearGradient
       id="a">
      <stop
         stop-color="#e7bc77"
         offset="0"
         id="stop17" />
      <stop
         stop-color="#e7bc77"
         stop-opacity="0"
         offset="1"
         id="stop19" />
    </linearGradient>
    <linearGradient
       id="i"
       x1="65.268997"
       x2="64.282997"
       y1="231.06"
       y2="284"
       gradientUnits="userSpaceOnUse"
       gradientTransform="matrix(1.7833623,0,0,1.348932,-111.83402,-87.247819)">
      <stop
         stop-color="#692017"
         offset="0"
         id="stop22" />
      <stop
         stop-color="#46150f"
         offset="1"
         id="stop24" />
    </linearGradient>
    <linearGradient
       id="h"
       x1="88.013"
       x2="94.416"
       y1="41.805"
       y2="129.75999"
       gradientUnits="userSpaceOnUse"
       gradientTransform="translate(-32.911105,-15.50739)">
      <stop
         stop-color="#b88100"
         offset="0"
         id="stop27" />
      <stop
         stop-color="#fecd7b"
         offset="1"
         id="stop29" />
    </linearGradient>
    <linearGradient
       id="g"
       x1="107.5"
       x2="106.5"
       y1="28"
       y2="36.5"
       gradientUnits="userSpaceOnUse"
       gradientTransform="translate(-32.911105,-15.50739)">
      <stop
         stop-color="#804d00"
         offset="0"
         id="stop32" />
      <stop
         stop-color="#b98304"
         offset="1"
         id="stop34" />
    </linearGradient>
    <linearGradient
       id="j"
       x1="98.5"
       x2="64.5"
       y1="993.85999"
       y2="995.35999"
       gradientTransform="matrix(2.9653431,0,0,1.6405711,-225.08116,-1389.4242)"
       gradientUnits="userSpaceOnUse">
      <stop
         stop-color="#f0be63"
         offset="0"
         id="stop37" />
      <stop
         stop-color="#b88100"
         offset="1"
         id="stop39" />
    </linearGradient>
    <radialGradient
       id="b"
       cx="-197.14999"
       cy="316.23999"
       r="42.421001"
       gradientTransform="matrix(-1.1182,0.05513,-0.09068,-2.5015,-764.72,1065.3)"
       gradientUnits="userSpaceOnUse">
      <stop
         stop-color="#dcac62"
         offset="0"
         id="stop42" />
      <stop
         stop-color="#b88100"
         offset="1"
         id="stop44" />
    </radialGradient>
    <radialGradient
       id="f"
       cx="-192.94"
       cy="403.73999"
       r="62.047001"
       gradientTransform="matrix(-6.2412e-8,0.41682,-0.75285,-9.9457e-8,370.5789,194.96261)"
       gradientUnits="userSpaceOnUse">
      <stop
         stop-color="#fcca77"
         offset="0"
         id="stop47" />
      <stop
         stop-color="#fcca77"
         stop-opacity="0"
         offset="1"
         id="stop49" />
    </radialGradient>
    <radialGradient
       id="e"
       cx="-188.89999"
       cy="456.47"
       r="62.047001"
       gradientTransform="matrix(-0.0979,7.1629e-8,-4.4104e-7,-0.69934,50.291895,471.62261)"
       gradientUnits="userSpaceOnUse">
      <stop
         stop-color="#f6c374"
         offset="0"
         id="stop52" />
      <stop
         stop-color="#b88100"
         offset="1"
         id="stop54" />
    </radialGradient>
    <radialGradient
       id="d"
       cx="-273.75"
       cy="320.53"
       r="49.710999"
       gradientTransform="matrix(-0.61828,-1.9302,1.0465,-0.30931,-489.2811,-342.68739)"
       gradientUnits="userSpaceOnUse"
       xlink:href="#a" />
    <radialGradient
       id="c"
       cx="-273.75"
       cy="320.53"
       r="49.710999"
       gradientTransform="matrix(0.61828,-1.9302,-1.0465,-0.30931,624.4589,-342.06739)"
       gradientUnits="userSpaceOnUse"
       xlink:href="#a" />
  </defs>
  <path
     d="m 140.3389,6.1e-4 c -1.4579,0.004 -2.961,0.0757 -4.457,0.19029 -2.992,0.22916 -5.922,0.64168 -8.2801,1.1227 -1.179,0.2405 -2.2215,0.49034 -3.0704,0.76114 -0.8489,0.2708 -1.4508,0.44702 -2.1196,1.0466 -1.6129,1.4461 -2.3739,3.3402 -2.7138,5.2328 -0.3399,1.8926 -0.31746,3.8276 -0.31694,5.6705 5.2e-4,1.8429 -0.031,3.5902 -0.35656,4.9854 -0.32556,1.3952 -0.85654,2.3994 -1.9413,3.1587 -0.5849,0.40946 -2.9554,0.64126 -5.0512,0.41862 -2.0958,-0.22264 -3.8825,-0.66599 -3.8825,-0.66599 l -0.79235,2.9304 c 0,0 1.9794,0.49154 4.3381,0.74211 2.3587,0.25057 5.1311,0.49392 7.25,-0.98948 1.8008,-1.2607 2.7376,-3.0779 3.1694,-4.9284 0.4318,-1.8505 0.41651,-3.7894 0.41599,-5.6514 -5.2e-4,-1.862 0.007,-3.652 0.27732,-5.1567 0.27032,-1.5047 0.76495,-2.6622 1.7432,-3.5393 -0.17038,0.15276 0.30964,-0.16339 0.99044,-0.38057 0.6808,-0.21718 1.6154,-0.46097 2.7138,-0.68502 2.1968,-0.44809 5.0313,-0.8471 7.8839,-1.0656 2.8526,-0.2185 5.7344,-0.23769 8.0028,0.019 2.2684,0.25669 3.8123,0.95158 4.0806,1.2939 3.5459,4.5246 4.1527,12.335 2.1988,21.749 -1.9539,9.414 -6.3847,20.327 -12.262,30.921 -11.754,21.187 -31.531,39.039 -45.916005,43.744 l 1.010196,2.8733 c 16.125009,-5.2748 35.699009,-23.596 47.679009,-45.19 5.9899,-10.797 10.538,-21.927 12.579,-31.758 2.041,-9.831 1.678,-18.486 -2.7732,-24.166 -1.3508,-1.7237 -3.6222,-2.1797 -6.22,-2.4737 -1.2989,-0.147 -2.7218,-0.21284 -4.1797,-0.20931 z"
     id="path61"
     inkscape:connector-curvature="0"
     style="fill:#b88100" />
  <path
     d="m 141.1289,0.61561 c 1.5196,-0.004 2.9822,0.0616 4.3361,0.20688 2.7078,0.29058 5.0754,0.74131 6.4835,2.4449 4.6398,5.6138 5.0176,14.168 2.8907,23.885 -2.1269,9.717 -6.8472,20.717 -13.091,31.389 -12.487,21.344 -32.827,39.428 -49.635005,44.642 l -1.053,-2.8399 c 14.994005,-4.6508 35.525005,-22.271 47.777005,-43.212 6.1259,-10.471 10.744,-21.256 12.781,-30.562 2.037,-9.306 1.4042,-17.025 -2.2919,-21.497 -0.27967,-0.33838 -1.8891,-1.0252 -4.2535,-1.2789 -2.3644,-0.2537 -5.3683,-0.23476 -8.3418,-0.0187 -2.9735,0.21606 -5.928,0.61032 -8.2179,1.0532 -1.1449,0.22144 -2.1191,0.4624 -2.8288,0.67705 -0.7097,0.21465 -1.21,0.52713 -1.0324,0.37615 -1.0197,0.86687 -1.5353,2.0109 -1.817,3.4981 -0.2817,1.4872 -0.26897,3.2563 -0.26842,5.0967 5.5e-4,1.8404 -0.004,3.7568 -0.45426,5.5857 -0.45026,1.8289 -1.4266,3.625 -3.3037,4.871 -2.2087,1.4661 -5.0985,1.2256 -7.5572,0.97797 -2.4587,-0.24763 -4.5219,-0.73348 -4.5219,-0.73348 l 0.82592,-2.8963 c 0,0 1.8624,0.4382 4.047,0.65825 2.1846,0.22005 4.6556,-0.009 5.2652,-0.41376 1.1307,-0.75054 1.7048,-1.7429 2.0442,-3.122 0.3394,-1.3791 0.3722,-3.1061 0.37166,-4.9275 -5.4e-4,-1.8214 -0.0446,-3.7339 0.30972,-5.6045 0.35432,-1.8706 1.1475,-3.7427 2.8288,-5.172 0.69703,-0.59258 1.3452,-0.76675 2.23,-1.0344 0.8848,-0.26765 1.9508,-0.51459 3.1798,-0.75229 2.458,-0.47539 5.5121,-0.88312 8.6308,-1.1096 1.5594,-0.11325 3.1468,-0.18458 4.6664,-0.18807 z"
     id="path63"
     inkscape:connector-curvature="0"
     style="fill:url(#c)" />
  <path
     d="m -6.5651057,6.1e-4 c -1.4578998,-0.004 -2.8610001,0.0623 -4.1598003,0.20931 -2.5978,0.294 -4.8692,0.75004 -6.22,2.4737 -4.451199,5.6798 -4.813599,14.335 -2.773199,24.166 2.0404,9.831 6.568899,20.961 12.5589995,31.758 11.9800004,21.595 31.5740005,39.916 47.6990005,45.19 l 1.0102,-2.8733 c -14.385,-4.7056 -34.1620001,-22.557 -45.9160007,-43.744 -5.8769003,-10.594 -10.3080003,-21.506 -12.2620003,-30.921 -1.953999,-9.415 -1.347199,-17.225 2.1988,-21.749 0.2683,-0.34236 1.8123,-1.0372 4.0806,-1.2939 2.2683005,-0.2567 5.1501003,-0.23752 8.0028004,-0.019 2.85270006,0.21852 5.6871005,0.6175 7.8839005,1.0656 1.0984,0.22405 2.033,0.46785 2.7138,0.68503 0.6808,0.21718 1.1608,0.53332 0.99044,0.38056 0.9782201,0.87707 1.4729001,2.0346 1.7432001,3.5393 0.2703,1.5047 0.25804,3.2946 0.25752,5.1567 -5.2e-4,1.8621 0.004,3.801 0.43579,5.6514 0.43179,1.8504 1.3686,3.6677 3.1694,4.9284 2.119,1.4834 4.8913,1.24 7.25,0.98948 2.3587,-0.25052 4.3381,-0.74211 4.3381,-0.74211 l -0.79235,-2.9304 c 0,0 -1.7867,0.44335 -3.8825,0.66599 -2.0958,0.22264 -4.4664,-0.009 -5.0512,-0.41862 -1.0847,-0.75937 -1.6355,-1.7634 -1.9611,-3.1587 -0.3256,-1.3953 -0.35708,-3.1426 -0.35656,-4.9854 5.2e-4,-1.8428 0.0428,-3.7778 -0.29713,-5.6705 -0.33993,-1.8927 -1.1009,-3.7867 -2.7138,-5.2328 -0.6687,-0.59954 -1.2905,-0.77577 -2.1394001,-1.0466 -0.8489,-0.27083 -1.8715,-0.52064 -3.0506,-0.76114 C 3.8337049,0.83262 0.90370446,0.4201 -2.0882956,0.19091 -3.5842957,0.07633 -5.1071957,0.00415 -6.5650957,6.2e-4 Z"
     id="path65"
     inkscape:connector-curvature="0"
     style="fill:#b88100" />
  <path
     d="m -5.9571057,6.1e-4 c -1.5195998,-0.004 -2.9822001,0.0616 -4.3361003,0.20688 -2.7078,0.29058 -5.0754,0.74132 -6.4835,2.4449 -4.639799,5.6138 -5.017599,14.168 -2.890699,23.885 2.126899,9.717 6.847199,20.717 13.0909993,31.389 12.4870006,21.344 32.8270007,41.428 49.6350007,46.642 l 1.053,-2.8399 c -14.994,-4.6508 -35.5250001,-24.271 -47.7770007,-45.212 -6.1259001,-10.471 -10.7440003,-21.256 -12.7810003,-30.562 -2.036999,-9.306 -1.404199,-17.025 2.2919,-21.497 0.27966,-0.33837 1.8891,-1.0252 4.2535002,-1.2789 2.3644003,-0.2537 5.3683001,-0.23476 8.3418002,-0.0188 2.9735,0.21596 5.9280005,0.61032 8.2179005,1.0532 1.1449,0.22144 2.1191,0.4624 2.8288,0.67705 0.7097001,0.21465 1.2100001,0.52713 1.0324001,0.37615 1.0197,0.86687 1.5353,2.0109 1.817,3.4981 0.2817,1.4872 0.26897,3.2563 0.26842,5.0967 -5.5e-4,1.8404 0.004,3.7568 0.45426,5.5857 0.45026,1.8289 1.4266,3.625 3.3037,4.871 2.2087,1.4661 5.0986,1.2256 7.5572,0.97797 2.4586,-0.24763 4.5219,-0.73348 4.5219,-0.73348 l -0.82592,-2.8963 c 0,0 -1.8624,0.4382 -4.047,0.65825 -2.1846,0.22005 -4.6556,-0.009 -5.2652,-0.41376 -1.1307,-0.75054 -1.7048,-1.7429 -2.0442,-3.122 -0.3394,-1.3791 -0.37221,-3.1061 -0.37166,-4.9275 5.5e-4,-1.8214 0.0446,-3.7339 -0.30972,-5.6045 -0.35432,-1.8706 -1.1476,-3.7427 -2.8288,-5.172 -0.69703,-0.59257 -1.3452,-0.76675 -2.23,-1.0344 C 9.6350749,1.78232 8.5690749,1.53538 7.3400749,1.29768 4.8820749,0.82229 1.8279744,0.41456 -1.2907256,0.18808 -2.8501256,0.07483 -4.4375257,0.0035 -5.9571257,0 Z"
     id="path67"
     inkscape:connector-curvature="0"
     style="fill:url(#d)" />
  <path
     d="m -29.175188,249.40513 190.908928,-1.06012 7.86089,19.08334 H -33.673006 Z"
     id="path69"
     inkscape:connector-curvature="0"
     style="fill:#310e0a;stroke-width:1.55101073" />
  <path
     d="m 62.032895,15.22261 0.0792,0.19028 c -5.0483,0.11159 -10.94,0.2564 -14.698,0.41863 -8.8353,0.38138 -26.247,3.6915 -26.247,3.6915 l -1.2876,3.6915 c 0,0 18.718,-3.314 28.188,-3.6915 6.3425,-0.25282 14.721,-0.75449 18.838,-1.0085 4.1297,0.25472 12.486,0.75608 18.818,1.0085 9.470096,0.37749 28.168005,3.6915 28.168005,3.6915 l -1.2678,-3.6915 c 0,0 -17.411009,-3.3101 -26.247005,-3.6915 -3.7584,-0.16223 -9.6499,-0.30704 -14.698,-0.41863 l 0.0792,-0.19028 -4.8532,0.0951 c -1.8277,-0.0347 -4.873,-0.0951 -4.873,-0.0951 z"
     id="path71"
     inkscape:connector-curvature="0"
     style="fill:url(#g)" />
  <path
     d="m 64.587895,18.30561 v 0.19029 c -13.348,0.34054 -25.524,-0.8199 -43.421,5.347 0,0 -1.4223,31.089 3.209,47.971 3.4542,12.591 9.3359,27.351 19.195,36.287 14.011,10.988 34.003,10.628 46.63,0 9.858795,-8.9358 15.760005,-23.696 19.215005,-36.287 4.6314,-16.881 3.209,-47.971 3.209,-47.971 -17.906009,-6.17 -30.085005,-5.0238 -43.441005,-5.366 v -0.17126 l -2.2978,0.11417 c -0.75725,-0.0304 -1.5295,-0.0696 -2.2978,-0.11417 z"
     id="path73"
     inkscape:connector-curvature="0"
     style="fill:url(#h)" />
  <path
     d="m 58.849895,113.14261 1.6571,8.0025 1.6571,18.482 -4.9714,4.3061 3.861,4.9349 c 0,0 4.8772,23.37 -5.4561,32.212 -2.353,2.0136 -2.1397,-1.1752 -2.1397,-1.1752 l -5.7546,3.5074 -15.368,7.9453 c 10.325,10.323 22.174,8.7471 33.911,8.0406 11.738,0.70646 23.603,2.2823 33.927995,-8.0406 l -15.367995,-7.9453 -5.7546,-3.5074 c 0,0 0.21327,3.1887 -2.1397,1.1752 -10.333,-8.8427 -5.4561,-32.212 -5.4561,-32.212 l 3.8609,-4.9349 -4.9714,-4.3061 1.6572,-18.482 1.6571,-8.0025 c -13.445,5.1843 -4.5611,2.2078 -14.812,0 z"
     id="path75"
     inkscape:connector-curvature="0"
     style="fill:url(#e)" />
  <path
     d="m 5.4470069,191.44152 -22.8627049,0.3195 -6.855066,29.85996 c 65.961221,1.79313 115.658177,0.3808 182.491464,0 l -10.28091,-29.85996 c -9.34215,-0.14045 -56.407669,1.43744 -47.7655,-0.40341 -24.394096,6.76941 -40.919521,11.21857 -67.838995,0 z"
     id="path77"
     inkscape:connector-curvature="0"
     style="fill:#3a0704;stroke-width:1.55101073"
     sodipodi:nodetypes="cccccccc" />
  <path
     d="m 57.466895,177.50261 c -2.6486,0.72535 -4.2902,1.7443 -4.2902,2.8733 0,2.2064 6.2956,3.996 14.054,3.996 7.7584,0 14.036,-1.7895 14.036,-3.996 0,-1.129 -1.6416,-2.1479 -4.2902,-2.8733 -0.51543,0.44332 -1.0948,0.85369 -1.7383,1.2178 1.1997,0.46694 1.9232,1.0333 1.9232,1.6555 0,1.5592 -4.4476,2.8162 -9.9303,2.8162 -5.4827,0 -9.9303,-1.257 -9.9303,-2.8162 0,-0.62219 0.70504,-1.1885 1.9047,-1.6555 -0.64341,-0.36413 -1.2228,-0.7745 -1.7383,-1.2178 z"
     id="path79"
     inkscape:connector-curvature="0"
     style="fill:#804d00" />
  <path
     transform="matrix(0.63388,0,0,0.60891,429.7989,-120.42739)"
     d="m -592.13,378.35 c -24.342,-21.175 -40.342,-23.958 -46.467,-141.42 l 6.0609,-2.0203 c 0.99724,55.244 -7.934,101.35 40.406,143.44 z"
     id="path81"
     inkscape:connector-curvature="0"
     style="fill:#804d00;filter:url(#o)" />
  <path
     transform="matrix(0.63388,0,0,0.60891,429.7989,-120.42739)"
     d="m -561.83,388.45 c 24.342,-21.175 50.443,-33.049 56.569,-150.51 l -6.0609,-2.0203 c -0.99724,55.244 -2.1675,110.44 -50.508,152.53 z"
     id="path83"
     inkscape:connector-curvature="0"
     style="fill:#804d00;filter:url(#n)" />
  <path
     transform="matrix(0.63388,0,0,0.60891,429.7989,-120.42739)"
     d="m -614.36,236.18 13.132,83.573 60.609,-1.1448 10.102,-84.718 c -29.798,-11.819 -56.632,-3.4862 -83.843,2.2897 z"
     id="path85"
     inkscape:connector-curvature="0"
     style="fill:url(#b);filter:url(#m)" />
  <path
     d="m 57.667895,112.14261 1.9215,8.092 1.9214,18.689 -5.7644,4.3542 4.4768,4.99 c 0,0 5.6348,21.095 -6.9925,30.518 -2.8754,2.1458 -2.6148,-1.2523 -2.6148,-1.2523 l -7.0321,3.7377 -16.659,9.9608 c 11.972,10.438 25.71,8.8449 39.32,8.1305 13.611,0.71436 27.367996,2.3078 39.340005,-8.1305 l -16.659005,-9.9608 -7.0321,-3.7377 c 0,0 0.26058,3.3981 -2.6148,1.2523 -12.627,-9.4235 -6.9925,-30.518 -6.9925,-30.518 l 4.4768,-4.99 -5.7644,-4.3542 1.9215,-18.689 1.9214,-8.092 c -15.589,5.2422 -5.2886,2.2325 -17.174,0 z"
     id="path87"
     inkscape:connector-curvature="0"
     style="fill:url(#f)" />
  <path
     d="M -22.482854,220.13076 H 156.87533 a 0.9077849,0.68664684 0 0 1 0.90778,0.68664 v 36.63832 a 0.9077849,0.68664684 0 0 1 -0.90778,0.68674 H -22.482854 a 0.9077849,0.68664684 0 0 1 -0.907785,-0.68674 V 220.8174 a 0.9077849,0.68664684 0 0 1 0.907785,-0.68664"
     id="path89"
     inkscape:connector-curvature="0"
     style="fill:url(#i);stroke-width:1.55101073" />
  <path
     d="M -33.918932,266.59052 H 169.3487 v 14.41604 H -33.918932 Z"
     id="path91"
     inkscape:connector-curvature="0"
     style="fill:#692017;stroke-width:1.55101073" />
  <path
     d="m -8.5920038,226.33999 c 0.01247,0.058 0.09857,0.11196 0.09857,0.17051 0,2.68978 6.1067987,4.91067 -9.0136932,5.24321 v 9.25022 c 0,0.19234 0.687484,0.34104 1.57682,0.34104 -0.889336,0 -1.57682,0.14436 -1.57682,0.34102 v 9.46331 c 15.1204919,0.34007 9.0136932,2.6203 9.0136932,5.37118 0,0.0593 -0.089158,0.11196 -0.09857,0.1705 H 141.69768 c -0.18774,-0.22797 -0.39424,-0.46713 -0.39424,-0.70333 0,-2.31086 -2.62615,-4.25224 10.21395,-4.94492 v -9.35674 c 0,-0.1967 -0.68749,-0.34102 -1.57681,-0.34102 0.88932,0 1.57681,-0.14864 1.57681,-0.34104 v -9.14364 c -12.8401,-0.67718 -10.21395,-2.57874 -10.21395,-4.83827 0,-0.23107 0.20641,-0.45907 0.39424,-0.68203 z"
     id="path93"
     inkscape:connector-curvature="0"
     style="fill:url(#j);stroke-width:2.00001144" />
  <path
     d="m 62.588895,178.49261 2.5,-11.5 1,-16.5 -3,-4.5 2,-3 -2.5,-26.5 c -8.5345,-2.6126 -12.614,-7.8982 -14.5,-14.5"
     id="path95"
     inkscape:connector-curvature="0"
     style="opacity:0.22439001;fill:none;stroke:#000000;filter:url(#l)" />
</svg>
